<svg xmlns="http://www.w3.org/2000/svg" viewBox="0 0 16 16">
 <g transform="translate(0,-1036.3622)">
  <g style="fill:#ae95c7;fill-opacity:1">
   <path d="m 1 1036.36 c 0 0 -1 0.038 -1 1 l 0 2 2 0 0 -1 1 0 0 -2 -1.906 0 -0.094 0 z m 3 0 0 2 2 0 0 -2 -2 0 z m 3 0 0 2 2 0 0 -2 -2 0 z m 3 0 0 2 2 0 0 -2 -2 0 z m 3 0 0 2 1 0 0 1 2 0 0 -2 c 0 -1 -1 -1 -1 -1 l -2 0 z m -13 4 0 2 2 0 0 -2 -2 0 z m 14 0 0 2 2 0 0 -2 -2 0 z m -14 3 0 2 2 0 0 -2 -2 0 z m 14 0 0 2 2 0 0 -2 -2 0 z m -14 3 0 2 2 0 0 -2 -2 0 z m 14 0 0 2 2 0 0 -2 -2 0 z m -14 3 0 2 c 0 1 1 1 1 1 l 2 0 0 -2 -1 0 0 -1 -2 0 z m 14 0 0 1 -1 0 0 2 2 0 c 0 0 1 0 1 -1 l 0 -2 -2 0 z m -10 1 0 2 2 0 0 -2 -2 0 z m 3 0 0 2 2 0 0 -2 -2 0 z m 3 0 0 2 2 0 0 -2 -2 0 z" style="fill:#ae95c7;color:#000"/>
  </g>
 </g>
</svg>
