<svg xmlns="http://www.w3.org/2000/svg" width="16" height="16" version="1.1">
 <defs>
  <style id="current-color-scheme" type="text/css">
   .ColorScheme-Text { color:#d6dade; } .ColorScheme-Highlight { color:#4285f4; }
  </style>
 </defs>
 <path style="fill:currentColor" class="ColorScheme-Text" d="M 5,12 8,16 11,12 Z"/>
 <rect style="fill:currentColor" class="ColorScheme-Text" width="4" height="4" x="1" y="2" rx="1" ry="1"/>
 <rect style="fill:currentColor" class="ColorScheme-Text" width="4" height="4" x="6" y="2" rx="1" ry="1"/>
 <rect style="fill:currentColor" class="ColorScheme-Text" width="4" height="4" x="11" y="2" rx="1" ry="1"/>
 <rect style="fill:currentColor" class="ColorScheme-Text" width="4" height="4" x="10" y="7" rx="1" ry="1"/>
 <rect style="fill:currentColor" class="ColorScheme-Text" width="7" height="4" x="2" y="7" rx="1" ry="1"/>
</svg>
