<svg xmlns="http://www.w3.org/2000/svg" width="16" height="16" viewBox="0 0 16 16">
 <defs>
  <style id="current-color-scheme" type="text/css">
   .ColorScheme-Text { color:#d6dade; } .ColorScheme-Highlight { color:#4285f4; }
  </style>
 </defs>
 <path style="fill:currentColor" class="ColorScheme-Text" d="M 8 1 C 7.79297 1.66364 7.5132275 2.3110656 7.2109375 2.9472656 C 5.6704375 6.0974656 3.2599437 8.2540875 3.0273438 10.242188 C 3.0213438 10.271888 3.0052 10.304384 3 10.333984 L 3.0195312 10.339844 C 3.0145313 10.408244 3 10.476722 3 10.544922 C 3 13.005122 5.2386 15 8 15 C 10.7614 15 13 13.005122 13 10.544922 C 13 10.476722 12.985469 10.408214 12.980469 10.339844 L 13 10.333984 C 12.995 10.304484 12.978956 10.271887 12.972656 10.242188 C 12.740106 8.2539875 10.329662 6.0973656 8.7890625 2.9472656 C 8.4867825 2.3110456 8.20702 1.6636 8 1 z"/>
</svg>
