<svg xmlns="http://www.w3.org/2000/svg" width="16" height="16" viewBox="0 0 16 16">
 <defs>
  <style id="current-color-scheme" type="text/css">
   .ColorScheme-Text { color:#d6dade; } .ColorScheme-Highlight { color:#4285f4; }
  </style>
 </defs>
 <path style="fill:currentColor" class="ColorScheme-Text" d="m9 1v2h2v10h-2v2h6v-2h-2v-10h2v-2h-6zm-5 3v3h-3v2h3v3l4-4-4-4z"/>
</svg>
