<svg xmlns="http://www.w3.org/2000/svg" width="16" height="16" version="1.1">
 <defs>
  <style id="current-color-scheme" type="text/css">
   .ColorScheme-Text { color:#d6dade; } .ColorScheme-Highlight { color:#4285f4; }
  </style>
 </defs>
 <path style="fill:currentColor" class="ColorScheme-Text" d="M 4.0410156 0 C 3.8844326 -0.0011501453 3.7225423 0.01930768 3.5527344 0.060546875 C 2.4968242 0.3169844 2.0039926 1.3994884 2 3.4726562 C 1.9987642 4.1155796 2.009747 4.2908189 2.078125 4.6582031 C 2.3585838 6.1650783 2.8331846 7.5172919 3.2539062 8.0097656 C 3.3425618 8.1135419 3.4362785 8.1992188 3.4609375 8.1992188 C 3.4855994 8.1992188 3.9514753 8.0876873 4.4960938 7.9511719 C 5.0407123 7.8146565 5.6078059 7.6741073 5.7578125 7.6386719 C 5.9207626 7.6001768 6.0643434 7.542822 6.1132812 7.4960938 C 6.2582571 7.3576637 6.426128 6.7081079 6.5351562 5.8632812 C 6.6041711 5.3284818 6.6147 4.1156025 6.5546875 3.6894531 C 6.3608508 2.3130023 5.9211017 1.2185062 5.3125 0.59570312 C 4.9255812 0.19975439 4.5107647 0.0034504359 4.0410156 0 z M 10.890625 4.0019531 C 10.521456 4.014521 10.46587 4.0271434 10.259766 4.1308594 C 9.6046406 4.4605339 9.1090113 5.1615961 8.7675781 6.2441406 C 8.4033545 7.3989322 8.3166641 8.4683476 8.4726562 9.8457031 C 8.5592822 10.610582 8.7342561 11.306894 8.8808594 11.462891 C 8.9393351 11.525114 9.1882466 11.599955 10.050781 11.814453 C 10.653022 11.96422 11.224723 12.109259 11.320312 12.136719 C 11.415904 12.164179 11.499259 12.187653 11.505859 12.189453 C 11.556129 12.202904 11.743256 12.003999 11.878906 11.792969 C 12.398785 10.984203 12.941571 9.0063773 12.994141 7.734375 C 13.014984 7.2299807 12.968563 6.5008657 12.882812 5.9941406 C 12.737529 5.1356344 12.354554 4.4544487 11.875 4.203125 C 11.548675 4.0321091 11.333359 3.9868751 10.890625 4.0019531 z M 6.2167969 8.1191406 L 5.8339844 8.2460938 C 5.6235623 8.3159607 5.0657485 8.4890434 4.5957031 8.6308594 C 4.1256587 8.7726764 3.7228416 8.9083402 3.6992188 8.9316406 C 3.6117924 9.0178481 3.80579 10.048822 4.0078125 10.570312 C 4.2731356 11.255206 4.7520814 11.798919 5.2324219 11.958984 C 5.3214995 11.988674 5.499427 12.005 5.6777344 12 C 5.9221078 11.993188 6.0088198 11.972162 6.1738281 11.888672 C 6.892311 11.52517 7.1825975 10.537295 6.8828125 9.4746094 C 6.7802608 9.1110812 6.4639301 8.4241635 6.3144531 8.2402344 L 6.2167969 8.1191406 z M 8.7949219 12.126953 C 8.7124645 12.133257 8.6586412 12.225956 8.4863281 12.552734 C 8.1623899 13.167059 8 13.746453 8 14.287109 C 8 15.114196 8.4163236 15.780879 9.0410156 15.955078 C 9.8604063 16.183569 10.667313 15.531391 11.0625 14.322266 C 11.205995 13.883223 11.358871 13.005379 11.306641 12.917969 C 11.28833 12.887328 9.8218372 12.417713 8.8925781 12.144531 C 8.8532658 12.132974 8.8224077 12.124852 8.7949219 12.126953 z"/>
</svg>
