<svg xmlns="http://www.w3.org/2000/svg" width="16" height="16" viewBox="0 0 16 16">
 <defs>
  <style id="current-color-scheme" type="text/css">
   .ColorScheme-Text { color:#d6dade; } .ColorScheme-Highlight { color:#4285f4; }
  </style>
 </defs>
 <path style="fill:currentColor" class="ColorScheme-Text" d="M 12 1 L 12 2 L 12 3 L 12 3.3125 L 3.3125 12 L 3 12 L 2 12 L 1 12 L 1 15 L 4 15 L 4 12.6875 L 12.6875 4 L 15 4 L 15 1 L 12 1 z"/>
</svg>
