<svg xmlns="http://www.w3.org/2000/svg" width="16" height="16" viewBox="0 0 16 16">
 <defs>
  <style id="current-color-scheme" type="text/css">
   .ColorScheme-Text { color:#d6dade; } .ColorScheme-Highlight { color:#4285f4; }
  </style>
 </defs>
 <path style="fill:currentColor" class="ColorScheme-Text" d="M 8 1.9804688 C 7.08323 1.9814687 6.1898312 2.2734787 5.6445312 2.9492188 C 5.0992612 3.6249588 4.9454831 4.4527094 4.8769531 5.4121094 C 4.8431531 5.8847494 4.8332906 6.4065288 4.8378906 6.9804688 L 4 6.9804688 C 3.446 6.9804688 3 7.4264688 3 7.9804688 C 3 8.5344687 3.446 8.9804688 4 8.9804688 L 4.8886719 8.9804688 C 4.9363719 10.378569 4.99995 12.023069 5 13.980469 A 1.0001 1.0001 0 1 0 7 13.980469 C 6.99995 12.018769 6.9437075 10.360969 6.8984375 8.9804688 L 8 8.9804688 C 8.554 8.9804688 9 8.5344687 9 7.9804688 C 9 7.4264688 8.554 6.9804688 8 6.9804688 L 6.8457031 6.9804688 C 6.8387031 6.4276688 6.8447469 5.9524875 6.8730469 5.5546875 C 6.9295469 4.7640775 7.0901419 4.3426781 7.2011719 4.2050781 C 7.3122019 4.0674781 7.4186231 3.9811287 8.0019531 3.9804688 A 1.0001 1.0001 0 1 0 8 1.9804688 z M 8.7070312 10.738281 L 8 11.445312 L 9.4140625 12.859375 L 8 14.273438 L 8.7070312 14.980469 L 10.121094 13.566406 L 11.535156 14.980469 L 12.242188 14.273438 L 10.828125 12.859375 L 12.242188 11.445312 L 11.535156 10.738281 L 10.121094 12.152344 L 8.7070312 10.738281 z"/>
</svg>
