<svg xmlns="http://www.w3.org/2000/svg" width="16" height="16" version="1.1">
 <defs>
  <style id="current-color-scheme" type="text/css">
   .ColorScheme-Text { color:#d6dade; } .ColorScheme-Highlight { color:#4285f4; }
  </style>
 </defs>
 <path style="fill:currentColor" class="ColorScheme-Text" d="M 7,11 V 4 L 3.5,7.5 2,6 8,0 14,6 12.5,7.5 9,4 V 11 Z"/>
 <circle style="fill:currentColor" class="ColorScheme-Text" cx="8" cy="14" r="2"/>
</svg>
