<svg xmlns="http://www.w3.org/2000/svg" width="16" height="16" viewBox="0 0 16 16">
 <defs>
  <style id="current-color-scheme" type="text/css">
   .ColorScheme-Text { color:#d6dade; } .ColorScheme-Highlight { color:#4285f4; }
  </style>
 </defs>
 <path style="fill:currentColor" class="ColorScheme-Text" d="M 2 2 A 1.0001 1.0001 0 0 0 1 3 L 1 4 A 1.0001 1.0001 0 0 0 2 5 L 5 5 L 5 11 L 2 11 A 1.0001 1.0001 0 0 0 1 12 L 1 13 A 1.0001 1.0001 0 0 0 2 14 L 7 14 A 1.0001 1.0001 0 0 0 8 13 L 8 10 L 10 10 L 10 12 L 15 8 L 10 4 L 10 6 L 8 6 L 8 3 A 1.0001 1.0001 0 0 0 7 2 L 2 2 z"/>
</svg>
