<svg xmlns="http://www.w3.org/2000/svg" width="16" height="16" viewBox="0 0 16 16">
 <defs>
  <style id="current-color-scheme" type="text/css">
   .ColorScheme-Text { color:#d6dade; } .ColorScheme-Highlight { color:#4285f4; }
  </style>
 </defs>
 <path style="fill:currentColor" class="ColorScheme-Text" d="M 7 1.5 L 0.53125 6 L 7 10.5 L 7 8 L 9 8 C 10.3649 8 11.5716 8.87335 11.9375 10 C 12.37513 11.3475 10.5 14 10.5 14 C 10.5 14 14.5 12.5 14.5 9.25 C 14.5 6.1265 12.5 4 9.5 4 L 7 4 L 7 1.5 z"/>
</svg>
