<svg xmlns="http://www.w3.org/2000/svg" width="16" height="16" version="1.1">
 <defs>
  <style id="current-color-scheme" type="text/css">
   .ColorScheme-Text { color:#d6dade; } .ColorScheme-Highlight { color:#4285f4; }
  </style>
 </defs>
 <path style="fill:currentColor" class="ColorScheme-Text" d="M 11 1 L 11 3 L 6.6191406 3 L 1 3 L 1 5 L 5.3828125 5 L 7.265625 5 L 8.3828125 5 L 10.619141 5 L 11 5 L 11 7 L 15 4 L 11 1 z M 11 9 L 11 11 L 10.619141 11 L 8.7363281 11 L 7.6191406 11 L 5.3828125 11 L 1 11 L 1 13 L 6.6191406 13 L 9.3828125 13 L 11 13 L 11 15 L 15 12 L 11 9 z"/>
</svg>
