<svg xmlns="http://www.w3.org/2000/svg" width="16" height="16" viewBox="0 0 16 16">
 <defs>
  <style id="current-color-scheme" type="text/css">
   .ColorScheme-Text { color:#d6dade; } .ColorScheme-Highlight { color:#4285f4; }
  </style>
 </defs>
 <path style="fill:currentColor" class="ColorScheme-Text" d="M 8.0097656 1.6894531 C 6.1777656 1.6894531 4.6849594 3.2416875 4.6308594 5.1796875 C 4.5858594 5.1912875 4.54234 5.211275 4.5 5.234375 C 4.0787 5.463935 3.9695525 6.1788669 4.2578125 6.8417969 C 4.4897125 7.3750969 4.9015906 7.7055325 5.2753906 7.6953125 C 5.5567706 9.4676125 6.6768656 10.789062 8.0097656 10.789062 C 8.0137656 10.789062 8.0174844 10.789083 8.0214844 10.789062 C 9.3543844 10.789062 10.474559 9.4676125 10.755859 7.6953125 C 11.129639 7.7055125 11.541508 7.3751069 11.773438 6.8417969 C 12.061697 6.1788769 11.95254 5.463975 11.53125 5.234375 C 11.48885 5.211275 11.445441 5.1912875 11.400391 5.1796875 C 11.346191 3.2416875 9.8534844 1.6894531 8.0214844 1.6894531 C 8.0174844 1.6894331 8.0137656 1.6894531 8.0097656 1.6894531 z M 10.394531 11.074219 C 10.105641 11.761869 9.1205125 12.277344 7.9453125 12.277344 C 6.7755125 12.277344 5.7996594 11.768888 5.5058594 11.085938 C 3.0367594 11.339348 1.2376844 11.959879 1.0214844 12.693359 C 1.0184844 12.700359 1.0234844 12.707844 1.0214844 12.714844 C 1.0144844 12.741244 1.0127656 12.764216 1.0097656 12.791016 C 1.0087656 12.803116 1 12.811819 1 12.824219 C 0.99991 12.828219 1 12.832038 1 12.835938 L 1 14.650391 C 1 14.844301 1.1557094 15 1.3496094 15 L 14.648438 15 C 14.842337 15 15 14.844291 15 14.650391 L 15 12.835938 C 15 12.827937 15.00035 12.8205 15 12.8125 C 14.998 12.77 14.979197 12.735169 14.966797 12.693359 C 14.746047 11.951029 12.908331 11.321519 10.394531 11.074219 z"/>
</svg>
