<svg xmlns="http://www.w3.org/2000/svg" viewBox="0 0 32 32">
 <defs>
  <radialGradient id="radialGradient3031" gradientUnits="userSpaceOnUse" gradientTransform="matrix(0.71641791,0,0,0.08955224,-7.2835823,1046.3025)" cx="32.5" cy="56.5" r="33.5">
   <stop style="stop-color:#000;stop-opacity:1"/>
   <stop offset="1" style="stop-color:#000;stop-opacity:0"/>
  </radialGradient>
 </defs>
 <g transform="translate(0,-1020.3622)">
  <ellipse ry="3" rx="24" cy="1051.36" cx="16" style="fill:url(#radialGradient3031);opacity:0.3;fill-opacity:1;stroke:none"/>
  <rect width="26" height="19" x="3" y="1020.36" style="fill:#eae7d1;fill-opacity:1;stroke:none"/>
  <rect width="20" height="2" x="6" y="1022.36" style="fill:#7a7a68;fill-opacity:1;stroke:none"/>
  <rect y="1026.36" x="6" height="2" width="20" style="fill:#7a7a68;fill-opacity:1;stroke:none"/>
  <rect width="20" height="2" x="6" y="1030.36" style="fill:#7a7a68;fill-opacity:1;stroke:none"/>
  <path d="m 32 1033.03 0 18.328 -32 0 0 -17 15 0 1.5 -3 13.976 0.062 c 0.762 0 1.524 0.805 1.524 1.61 z" style="fill:#95aec7;fill-opacity:1;stroke:none"/>
  <path d="m 0 1050.36 0 1 32 0 0 -1 z" style="fill:#000;opacity:0.15;fill-opacity:1;stroke:none"/>
  <path d="m 16.5 1031.36 -1.5 3 -15 0 0 1 15.5 0 1.5 -3 13.469 0.062 c 0.762 0 1.531 0.767 1.531 1.531 l 0 -1 c 0 0 -0.769 -1.531 -1.531 -1.531 z" style="fill:#000;opacity:0.03;fill-opacity:1;stroke:none"/>
  <path d="m 29.999 1041.36 c 0.044 2.129 -1.09 4.115 -2.963 5.193 -1.875 1.077 -4.197 1.077 -6.071 0 -1.874 -1.078 -3.01 -3.065 -2.963 -5.193 -0.044 -2.129 1.09 -4.115 2.963 -5.192 1.874 -1.078 4.195 -1.078 6.071 0 1.874 1.077 3.01 3.063 2.963 5.192 z" style="fill:#4caf50;fill-opacity:1;fill-rule:evenodd"/>
  <path d="m 27.28 1037.59 c -0.127 0.045 -0.234 0.13 -0.308 0.243 l -3.27 3.166 -2.041 -1.948 c -0.082 -0.271 -0.338 -0.45 -0.623 -0.435 -0.284 0.014 -0.522 0.221 -0.573 0.5 -0.05 0.277 0.098 0.552 0.359 0.665 l 2.458 2.436 c 0.236 0.215 0.601 0.215 0.836 0 l 3.689 -3.653 c 0.144 -0.189 0.164 -0.445 0.05 -0.653 -0.114 -0.21 -0.34 -0.334 -0.579 -0.319 z" style="fill:#fff"/>
 </g>
</svg>
