<svg xmlns="http://www.w3.org/2000/svg" width="22" height="22" viewBox="0 0 22 22">
 <defs>
  <style id="current-color-scheme" type="text/css">
   .ColorScheme-Text { color:#d6dade; } .ColorScheme-Highlight { color:#4285f4; }
  </style>
 </defs>
 <path style="fill:currentColor" class="ColorScheme-Text" d="m0 8c0.000258 2.3758 1.6722 4.4233 4 4.8984v3.102h2v-3.105c2.3263-0.475 3.9979-2.521 4-4.895-0.0003-2.3758-1.6722-4.4233-4-4.8984v-3.1016h-2v3.1055c-2.3263 0.4748-3.9979 2.5202-4 4.8945z" transform="translate(3 3)"/>
</svg>
