<svg xmlns="http://www.w3.org/2000/svg" width="22" height="22" viewBox="0 0 22 22">
 <defs>
  <style id="current-color-scheme" type="text/css">
   .ColorScheme-Text { color:#d6dade; } .ColorScheme-Highlight { color:#4285f4; }
  </style>
 </defs>
 <path style="fill:currentColor" class="ColorScheme-Text" d="M 2.9707031 2 C 2.9707031 2 1.0019531 2.0006 1.0019531 4 L 1.0019531 9.9980469 C 1.0019531 11.105747 1.8939531 11.996094 3.0019531 11.996094 L 8.0019531 11.996094 L 10.001953 15 L 12.001953 11.996094 L 13.001953 11.996094 C 13.001953 11.996094 15.001953 11.997447 15.001953 9.9980469 L 15.001953 4 C 15.001953 2.0006 13.001953 2 13.001953 2 L 2.9707031 2 z" transform="translate(3 3)"/>
</svg>
