<svg xmlns="http://www.w3.org/2000/svg" width="22" height="22" viewBox="0 0 22 22">
 <defs>
  <style id="current-color-scheme" type="text/css">
   .ColorScheme-Text { color:#d6dade; } .ColorScheme-Highlight { color:#4285f4; }
  </style>
 </defs>
 <path style="fill:currentColor" class="ColorScheme-Text" d="M 2.8398438 1.0058594 C 2.5588138 1.0495894 1.9960938 1.2398131 1.9960938 1.9394531 L 1.9960938 14.066406 C 1.9960938 14.999266 2.9960938 15 2.9960938 15 L 12.986328 15 C 13.985538 15 13.986328 14.066406 13.986328 14.066406 C 14.005128 14.023396 13.991328 7.1143812 13.986328 4.7382812 L 9.9902344 1.0058594 L 2.9960938 1.0058594 C 2.9960938 1.0058594 2.9335938 0.99130938 2.8398438 1.0058594 z M 7.9960938 4 L 8.7617188 6.1523438 L 10.824219 5.171875 L 9.84375 7.234375 L 11.996094 8 L 9.84375 8.765625 L 10.824219 10.828125 L 8.7617188 9.8476562 L 7.9960938 12 L 7.2304688 9.8476562 L 5.1679688 10.828125 L 6.1484375 8.765625 L 3.9960938 8 L 6.1484375 7.234375 L 5.1679688 5.171875 L 7.2304688 6.1523438 L 7.9960938 4 z" transform="translate(3 3)"/>
</svg>
