<svg xmlns="http://www.w3.org/2000/svg" width="22" height="22" viewBox="0 0 22 22">
 <defs>
  <style id="current-color-scheme" type="text/css">
   .ColorScheme-Text { color:#d6dade; } .ColorScheme-Highlight { color:#4285f4; }
  </style>
 </defs>
 <path style="fill:currentColor" class="ColorScheme-Text" d="M 8 1 C 5.5147 1 3.5 3.2083406 3.5 5.9316406 C 3.491 7.4083406 4.6829687 8.6985156 5.2304688 10.103516 C 5.4744788 10.729686 5.9238281 12 5.9238281 12 L 10.076172 12 C 10.076172 12 10.525521 10.729616 10.769531 10.103516 C 11.317021 8.6985156 12.4761 7.3919406 12.5 5.9316406 C 12.5 3.2083406 10.4853 1 8 1 z M 6 13 L 6 15 L 10 15 L 10 13 L 6 13 z" transform="translate(3 3)"/>
</svg>
