<svg xmlns="http://www.w3.org/2000/svg" width="22" height="22" viewBox="0 0 22 22">
 <defs>
  <style id="current-color-scheme" type="text/css">
   .ColorScheme-Text { color:#d6dade; } .ColorScheme-Highlight { color:#4285f4; }
  </style>
 </defs>
 <path style="fill:currentColor" class="ColorScheme-Text" d="M 8 0 L 4 6.9375 L 12 6.9375 C 12 7 8 0 8 0 z M 4 9 L 8 16 L 12 9 L 4 9 z" transform="translate(3 3)"/>
</svg>
