<svg xmlns="http://www.w3.org/2000/svg" width="22" height="22" viewBox="0 0 22 22">
 <defs>
  <style id="current-color-scheme" type="text/css">
   .ColorScheme-Text { color:#d6dade; } .ColorScheme-Highlight { color:#4285f4; }
  </style>
 </defs>
 <path style="fill:currentColor" class="ColorScheme-Text" d="M 2 2 C 0.892 2 0 2.892 0 4 L 0 12 C 0 13.108 0.892 14 2 14 L 14 14 C 15.108 14 16 13.108 16 12 L 16 4 C 16 2.892 15.108 2 14 2 L 2 2 z M 7 4.9960938 L 9 4.9960938 L 9 6.9960938 L 11 6.9960938 L 11 8.9960938 L 9 8.9960938 L 9 10.996094 L 7 10.996094 L 7 8.9960938 L 5 8.9960938 L 5 6.9960938 L 7 6.9960938 L 7 4.9960938 z" transform="translate(3 3)"/>
</svg>
