<svg xmlns="http://www.w3.org/2000/svg" width="22" height="22" viewBox="0 0 22 22">
 <defs>
  <style id="current-color-scheme" type="text/css">
   .ColorScheme-Text { color:#d6dade; } .ColorScheme-Highlight { color:#4285f4; }
  </style>
 </defs>
 <path style="fill:currentColor" class="ColorScheme-Text" d="M 11 0 L 11 2.3769531 C 8.563 2.7425531 6.5520937 3.6630531 5.0585938 5.1269531 C 3.5658937 6.5899531 2.613575 8.574 2.234375 11 L 0 11 L 0 16 L 5 16 L 5 11 L 3.2480469 11 C 3.6117469 8.8263 4.4664125 7.1056437 5.7578125 5.8398438 C 7.0514125 4.5719437 8.8055 3.742525 11 3.390625 L 11 5 L 16 5 L 16 0 L 11 0 z" transform="translate(3 3)"/>
</svg>
