<svg xmlns="http://www.w3.org/2000/svg" width="22" height="22" viewBox="0 0 22 22">
 <defs>
  <style id="current-color-scheme" type="text/css">
   .ColorScheme-Text { color:#d6dade; } .ColorScheme-Highlight { color:#4285f4; }
  </style>
 </defs>
 <path style="fill:currentColor" class="ColorScheme-Text" d="M 9.5 1.5 L 9.5 2.5429688 L 14.470703 6 L 9.5 9.4570312 L 9.5 10.5 L 15.970703 6 L 9.5 1.5 z M 6 1.5039062 L 6 4.0039062 L 5 4.0039062 C 2 4.0039062 0 6.1304062 0 9.2539062 C 0 12.503906 4 14.003906 4 14.003906 C 4 14.003906 2.1249 11.351406 2.5625 10.003906 C 2.92839 8.8773063 4.1351 8.0039062 5.5 8.0039062 L 6 8.0039062 L 6 10.503906 L 12.46875 6.0039062 L 6 1.5039062 z" transform="translate(3 3)"/>
</svg>
