<svg xmlns="http://www.w3.org/2000/svg" width="22" height="22" version="1.1">
 <defs>
  <style id="current-color-scheme" type="text/css">
   .ColorScheme-Text { color:#d6dade; } .ColorScheme-Highlight { color:#4285f4; }
  </style>
 </defs>
 <g transform="matrix(1,0,0,1,3,3)">
  <circle class="ColorScheme-Text" cx="2.5" cy="3.5" r="1.5" style="fill:currentColor"/>
  <circle class="ColorScheme-Text" cx="2.5" cy="7.5" r="1.5" style="fill:currentColor"/>
  <circle class="ColorScheme-Text" cx="2.5" cy="11.5" r="1.5" style="fill:currentColor"/>
  <path class="ColorScheme-Text" d="M 8,13 V 9 H 5 L 10,2 15,9 H 12 V 13 Z" style="fill:currentColor"/>
 </g>
</svg>
