<svg xmlns="http://www.w3.org/2000/svg" width="22" height="22" viewBox="0 0 22 22">
 <defs>
  <style id="current-color-scheme" type="text/css">
   .ColorScheme-Text { color:#d6dade; } .ColorScheme-Highlight { color:#4285f4; }
  </style>
 </defs>
 <path style="fill:currentColor" class="ColorScheme-Text" d="M 0 1 L 0 15 C 5.3333 14.998 10.667 15.005906 16 15.003906 L 16 1.0039062 C 10.667 1.0058063 5.333 0.998 0 1 z M 5 5 C 6.1046 5 7 5.8955 7 7 C 7 8.1045 6.1046 9 5 9 C 3.8954 9 3 8.1045 3 7 C 3 5.8955 3.8954 5 5 5 z M 5 10 C 8.9998 9.9982 9 12.400391 9 12.400391 L 9 13 L 1 13 L 1 12.400391 C 1 12.400391 0.99989 10.002 5 10 z" transform="translate(3 3)"/>
</svg>
