<svg xmlns="http://www.w3.org/2000/svg" viewBox="0 0 16 16">
 <g transform="translate(0,-1036.3622)">
  <g>
   <rect transform="translate(0,1036.3622)" x="2" height="9" width="12" style="fill:#eae7d1;fill-opacity:1;stroke:none"/>
   <rect y="1041.36" x="4" height="1" width="8" style="fill:#7a7a68;fill-opacity:1;stroke:none"/>
   <path d="m 16 1042.36 0 10 -16 0 0 -9 7 0 1 -2 7 0 c 0.5 0 1 0.5 1 1 z" style="fill:#ae95c7;fill-opacity:1;stroke:none"/>
   <path d="m 0 1051.36 0 1 16 0 0 -1 z" style="fill:#000;opacity:0.15;fill-opacity:1;stroke:none"/>
   <path transform="translate(0,1036.3622)" d="M 8,5 7,7 0,7 0,8 8,8 9,6 15,6 c 0.5,0 1,0.5 1,1 L 16,6 C 16,5.5 15.5,5 15,5 Z" style="fill:#000;opacity:0.03;fill-opacity:1;stroke:none"/>
   <rect y="1037.36" x="4" height="1" width="8" style="fill:#7a7a68;fill-opacity:1;stroke:none"/>
   <rect width="8" height="1" x="4" y="1039.36" style="fill:#7a7a68;fill-opacity:1;stroke:none"/>
  </g>
  <path d="m 15.999 1048.36 a 4 3.921 0 1 1 -7.998 0 4 3.921 0 1 1 7.998 0 z" style="fill:#4caf50;fill-opacity:1;fill-rule:evenodd"/>
  <path d="m 14.187 1045.85 a 0.41 0.406 0 0 0 -0.205 0.162 l -2.18 2.11 -1.36 -1.299 a 0.41 0.406 0 1 0 -0.557 0.487 l 1.639 1.623 a 0.41 0.406 0 0 0 0.557 0 l 2.459 -2.435 a 0.41 0.406 0 0 0 -0.352 -0.649 z" style="fill:#fff;color:#000"/>
 </g>
</svg>
