<svg xmlns="http://www.w3.org/2000/svg" width="22" height="22" version="1.1">
 <defs>
  <style id="current-color-scheme" type="text/css">
   .ColorScheme-Text { color:#dfe2e5; } .ColorScheme-Highlight { color:#4285f4; }
  </style>
 </defs>
 <path style="fill:currentColor" class="ColorScheme-Text" d="M 11.016,3 C 10.874,3.0005 10.726,3.1324 10.518,3.4004 L 6.1797,9.7207 C 4.6874,11.894 4.7034,14.242 5.7091,16.016 6.7146,17.789 8.6945,19 11.002,19 13.309,19 15.286,17.789 16.291,16.016 17.296,14.242 17.311,11.894 15.82,9.7187 L 11.48,3.3887 C 11.293,3.1312 11.157,2.9995 11.016,3 Z M 11.004,4.7129 14.666,10.324 C 15.557,11.706 15.729,13.014 14.246,14.191 14.069,14.342 13.846,14.484 13.602,14.613 13.045,14.86 12.458,15.12 11.803,15.195 11.537,15.241 11.256,15.269 10.945,15.256 10.912,15.252 10.878,15.25 10.844,15.25 H 10.838 C 9.8449,15.25 9.0253,14.424 9.0253,13.334 9.0259,12.366 9.6906,11.583 10.562,11.441 10.729,11.409 10.902,11.377 11.084,11.338 11.817,11.097 12.134,10.068 11.439,9.5742 10.946,9.224 10.371,9.0307 9.7949,9.0039 9.0867,8.9709 8.3916,9.1967 7.7949,9.6171 Z"/>
</svg>
