<svg xmlns="http://www.w3.org/2000/svg" width="22" height="22" version="1.1">
 <defs>
  <style id="current-color-scheme" type="text/css">
   .ColorScheme-Text { color:#dfe2e5; } .ColorScheme-Highlight { color:#4285f4; }
  </style>
 </defs>
 <path style="fill:currentColor" class="ColorScheme-Text" d="m 15.882235,3.9995836 c -0.285923,0 -0.64571,0.04645 -0.798828,0.103516 -0.653686,0.243617 -1.160753,0.500199 -1.451172,1.664094 -0.467166,1.8722268 -1.269759,2.7070317 -2.602539,2.7070317 -0.407157,0 -0.410953,0.08131 -0.02149,0.4453111 0.756163,0.7067018 1.216254,1.7658246 1.34082,3.0878896 0.04897,0.51956 0.122066,0.74962 0.305664,0.964843 0.132467,0.155287 0.295766,0.28125 0.364258,0.28125 0.06849,0 0.201509,-0.230053 0.295899,-0.511718 0.126855,-0.378533 0.192132,-1.046417 0.25,-2.560547 0.06709,-1.7555207 0.109469,-2.1289797 0.295898,-2.6103491 0.477208,-1.2321663 1.544244,-1.8906223 2.630859,-1.4037893 0.521727,0.23375 0.972446,0.9126248 1.63379,2.0698047 0.490486,0.8582289 1.041652,1.5058569 1.282226,1.5058569 0.121528,0 0.124257,-0.166917 0.0039,-0.240234 C 18.918299,8.1548233 18.895881,6.4570446 18.595119,5.6636466 18.062447,4.6336996 17.027456,3.9995836 15.882235,3.9995836 Z M 8.8246174,8.2877023 c -0.09453,8.5e-4 -0.202611,0.0091 -0.336914,0.02149 -0.635293,0.05852 -0.951172,0.1418 -0.951172,0.2509769 0,0.03567 0.393838,0.458752 0.874023,0.940426 0.9551406,0.9580978 1.4120686,1.7205898 1.6201176,2.7041018 0.09367,0.320125 0.121744,0.647749 0.142578,0.976562 -0.713386,0.324048 -1.171841,1.034825 -1.172852,1.818359 0,1.104569 0.895431,2 2.000001,2 1.10457,0 2,-0.895431 2,-2 -7e-4,-0.768985 -0.442262,-1.469458 -1.135742,-1.801758 -0.100665,-0.276185 -0.07519,-0.543654 -0.07519,-0.816406 0,-1.634304 -0.85421,-3.1396808 -2.187501,-3.8554658 C 9.264328,8.3447293 9.108202,8.2851373 8.8246174,8.2877073 Z m -2.091797,0.6513651 -0.539062,0.3652348 c -0.791485,0.537693 -1.56266,1.4112368 -1.977539,2.2392568 -0.328679,0.655977 -0.369397,0.824522 -0.408203,1.682617 -0.02699,0.596736 -0.101953,1.067707 -0.199219,1.256836 -0.211182,0.410627 -0.106372,0.796026 0.240234,0.881835 0.145922,0.03612 0.489867,0.292399 0.764648,0.56836 0.920057,0.923995 2.670229,1.302958 4.233399,0.916992 C 9.251793,16.750269 9.30089,16.662033 9.061921,16.46641 8.976091,16.39615 8.7932334,16.118884 8.6546954,15.849222 8.1809054,14.926977 8.3571584,13.779775 9.088288,13.039652 9.420027,12.703836 9.439828,12.65041 9.382234,12.235941 9.348304,11.991616 9.207609,11.570671 9.068757,11.300394 8.7857824,10.749567 7.5947494,9.4628012 7.0736404,9.1451222 Z m -0.982422,4.0605456 c 0.414214,0 0.75,0.335786 0.75,0.75 0,0.414214 -0.335786,0.75 -0.75,0.75 -0.414213,0 -0.75,-0.335786 -0.75,-0.75 0,-0.414214 0.335787,-0.75 0.75,-0.75 z m 5.2500006,1 c 0.552285,0 1,0.447715 1,1 0,0.552284 -0.447715,1 -1,1 -0.552286,0 -1.000001,-0.447716 -1.000001,-1 0,-0.552285 0.447715,-1 1.000001,-1 z"/>
</svg>
