<svg xmlns="http://www.w3.org/2000/svg" width="22" height="22" version="1.1">
 <defs>
  <style id="current-color-scheme" type="text/css">
   .ColorScheme-Text { color:#dfe2e5; } .ColorScheme-Highlight { color:#4285f4; }
  </style>
 </defs>
 <path style="fill:currentColor" class="ColorScheme-Text" d="M 11 3 C 6.568 3 3 6.568 3 11 C 3 15.432 6.568 19 11 19 C 15.432 19 19 15.432 19 11 C 19 6.568 15.432 3 11 3 z M 11 5 C 14.324 5 17 7.676 17 11 C 17 14.324 14.324 17 11 17 C 7.676 17 5 14.324 5 11 C 5 7.676 7.676 5 11 5 z M 8.3164062 7 L 7.7753906 7.3144531 L 7.6015625 7.4140625 L 7.0019531 7.7597656 L 7 7.7617188 L 7.0019531 7.7636719 L 7.0019531 8.3203125 L 7.0019531 14.199219 L 8 15 L 9 14.199219 L 9 9.96875 L 11 11.140625 L 13 9.96875 L 13 14.199219 L 14 15 L 14.998047 14.199219 L 14.998047 8.3203125 L 14.998047 7.7636719 L 15 7.7617188 L 14.998047 7.7597656 L 14.398438 7.4140625 L 14.224609 7.3144531 L 13.683594 7 L 11 8.6972656 L 8.3164062 7 z"/>
</svg>
