<svg xmlns="http://www.w3.org/2000/svg" width="22" height="22" version="1.1">
 <defs>
  <style id="current-color-scheme" type="text/css">
   .ColorScheme-Text { color:#dfe2e5; } .ColorScheme-Highlight { color:#4285f4; }
  </style>
 </defs>
 <path style="fill:currentColor" class="ColorScheme-Text" d="m 11,2.999999 c -1.662,0 -3,1.338 -3,3 v 4.007812 c -1.256833,0.942621 -1.997544,2.421151 -2,3.992188 0.0029,2.624395 2.034298,4.799946 4.652344,4.982422 0.115575,0.0109 0.23157,0.01677 0.347656,0.01758 2.761424,0 5,-2.238576 5,-5 -0.0025,-1.571037 -0.743168,-3.049566 -2,-3.992188 V 5.999999 c 0,-1.662 -1.338,-3 -3,-3 z m 0,2 c 0.588594,0 1,0.4114055 1,1 v 5.007812 l 0.800781,0.59961 c 0.754951,0.566211 1.197108,1.450832 1.199219,2.394531 -10e-4,1.67894 -1.319107,2.997011 -2.998047,2.998047 -0.05407,-6.94e-4 -0.108141,-0.0027 -0.162109,-0.0078 l -0.02344,-0.0039 -0.02539,-0.002 C 9.201993,16.875601 8.002731,15.592617 8,13.999999 8.0027,13.057107 8.444771,12.173255 9.199218,11.607421 L 10,11.007811 V 5.999999 c 0,-0.5885945 0.411406,-1 1,-1 z"/>
</svg>
