<svg xmlns="http://www.w3.org/2000/svg" viewBox="0 0 24 24">
 <path d="m 3 11.498 0 7 11 0 0 -3.5 -0.5 -3 -4 0 -0.5 -1 -5.5 0 c -0.25 0 -0.5 0.25 -0.5 0.5 z" style="fill:#d3869b;fill-opacity:1;stroke:none"/>
 <rect x="5" style="fill:#fffdf0;fill-opacity:1;stroke:none" width="4" y="11.998" height="2.5"/>
 <path d="m 3.5 10.998 c -0.25 0 -0.5 0.25 -0.5 0.5 l 0 1 c 0 -0.25 0.25 -0.5 0.5 -0.5 l 5.5 0 0.5 1 4 0 0.5 3 0 -1 -0.5 -3 -4 0 -0.5 -1 -5.5 0 z" style="fill:#000;opacity:0.015;fill-opacity:1;stroke:none"/>
 <path d="m 14 12.538 0 7.467 -11 0 0 -7 5.5 0 0.5 -1 4.5 0 c 0.25 0 0.5 0.267 0.5 0.533 z" style="fill:#83a598;fill-opacity:1;stroke:none"/>
 <path d="m 3.5 10.998 c -0.25 0 -0.5 0.25 -0.5 0.5 l 0 1 0 0.506 0 5.494 0 0.5 0 1 0 0.006 11 0 0 -0.006 0 -1 0 -0.5 0 -2.5 0 -1 0 -2.461 c 0 -0.265 -0.249 -0.532 -0.498 -0.533 l -0.002 0 0 -0.006 -4 0 -0.5 -1 -5.5 0 z" style="fill:#fff;opacity:0.5;fill-opacity:1;stroke:none"/>
 <path d="m 3 18.998 0 1 11 0 0 -1 z" style="fill:#000;opacity:0.075;fill-opacity:1;stroke:none"/>
 <path d="m 9 11.998 -0.5 1 -5.5 0 0 1 6.25 0 0.5 -1 3.75 0 c 0.25 0 0.5 0.265 0.5 0.531 l 0 -1 c 0 -0.267 -0.25 -0.531 -0.5 -0.531 z" style="fill:#000;opacity:0.015;fill-opacity:1;stroke:none"/>
 <path d="m 10 4.498 0 7 11 0 0 -3.5 -0.5 -3 -4 0 -0.5 -1 -5.5 0 c -0.25 0 -0.5 0.25 -0.5 0.5 z" style="fill:#d3869b;fill-opacity:1;stroke:none"/>
 <path d="m 10.5 3.998 c -0.25 0 -0.5 0.25 -0.5 0.5 l 0 1 c 0 -0.25 0.25 -0.5 0.5 -0.5 l 5.5 0 0.5 1 4 0 0.5 3 0 -1 -0.5 -3 -4 0 -0.5 -1 -5.5 0 z" style="fill:#000;opacity:0.03;fill-opacity:1;stroke:none"/>
 <rect x="12" style="fill:#fffdf0;fill-opacity:1;stroke:none" y="4.998" width="4" height="2.5"/>
 <path d="m 21 5.538 0 7.467 -11 0 0 -7 5.5 0 0.5 -1 4.5 0 c 0.25 0 0.5 0.267 0.5 0.533 z" style="fill:#83a598;fill-opacity:1;stroke:none"/>
 <path d="m 10 11.998 0 1 11 0 0 -1 z" style="fill:#000;opacity:0.15;fill-opacity:1;stroke:none"/>
 <path d="m 16 4.998 -0.5 1 -5.5 0 0 1 6.25 0 0.5 -1 3.75 0 c 0.25 0 0.5 0.265 0.5 0.531 l 0 -1 c 0 -0.267 -0.25 -0.531 -0.5 -0.531 z" style="fill:#000;opacity:0.03;fill-opacity:1;stroke:none"/>
 <path d="m 21 11.998 -4 0 0 -4 -4 0 0 4 -4 0 0 4 4 0 0 4 4 0 0 -4 4 0 z" style="fill:#4caf50;fill-opacity:1"/>
 <path d="m 9 11.998 -0.5 1 -5.5 0 0 1 6.25 0 0.5 -1 3.75 0 c 0.25 0 0.5 0.265 0.5 0.531 l 0 -1 c 0 -0.267 -0.25 -0.531 -0.5 -0.531 z" style="fill:#000;opacity:0.015;fill-opacity:1;stroke:none"/>
</svg>
