<svg xmlns="http://www.w3.org/2000/svg" viewBox="0 0 32 32">
 <defs>
  <radialGradient id="radialGradient3031" gradientUnits="userSpaceOnUse" gradientTransform="matrix(1,0,0,0.10447761,0,50.597015)" cx="32.5" cy="56.5" r="33.5">
   <stop style="stop-color:#000;stop-opacity:1"/>
   <stop offset="1" style="stop-color:#000;stop-opacity:0"/>
  </radialGradient>
 </defs>
 <g transform="translate(0,-1020.3622)">
  <path d="m 66 56.5 c 0 1.933 -14.998 3.5 -33.5 3.5 -18.502 0 -33.5 -1.567 -33.5 -3.5 0 -1.933 14.998 -3.5 33.5 -3.5 18.502 0 33.5 1.567 33.5 3.5 z" transform="matrix(0.71641791,0,0,0.85714286,-7.2835821,999.9336)" style="fill:url(#radialGradient3031);opacity:0.3;fill-opacity:1;stroke:none"/>
  <path d="m 0 1024.89 0 21.412 32 0 0 -10.706 -1.524 -9.177 -11.976 -0.059 -1.5 -3 -15.476 0 c -0.762 0 -1.524 0.765 -1.524 1.529 z" style="fill:#95c7ae;fill-opacity:1;stroke:none"/>
  <rect width="15.786" height="5.941" x="2.5" y="1027.36" style="fill:#fffdf0;fill-opacity:1;stroke:none"/>
  <path d="m 1.531 1023.36 c -0.762 0 -1.531 0.767 -1.531 1.531 l 0 1 c 0 -0.765 0.769 -1.531 1.531 -1.531 l 14.969 0 1.5 3 12.469 0.062 1.531 9.172 0 -1 -1.531 -9.172 -11.969 -0.062 -1.5 -3 z" style="fill:#000;opacity:0.03;fill-opacity:1;stroke:none"/>
  <path d="m 32 1027.95 0 21.412 -32 0 0 -20 15 0 1.5 -3 13.976 0.059 c 0.762 0 1.524 0.765 1.524 1.53 z" style="fill:#95aec7;fill-opacity:1;stroke:none"/>
  <path d="m 0 1048.36 0 1 32 0 0 -1 z" style="fill:#000;opacity:0.15;fill-opacity:1;stroke:none"/>
  <path d="m 16.5 1026.36 -1.5 3 -15 0 0 1 15.5 0 1.5 -3 13.469 0.062 c 0.762 0 1.531 0.767 1.531 1.531 l 0 -1 c 0 -0.765 -0.769 -1.531 -1.531 -1.531 z" style="fill:#000;opacity:0.03;fill-opacity:1;stroke:none"/>
  <g style="opacity:1">
   <path d="m 9 1032.36 0 5 5 0 z" style="fill:#1c2023;opacity:1;fill-opacity:1;stroke:none"/>
   <path d="m 15.906 1034.83 a 1 1 0 0 0 -0.125 0.031 1 1 0 0 0 -0.781 1 l 0 3.688 a 1 1 0 0 0 0 0.094 1 1 0 0 0 0.125 0.75 1 1 0 0 0 0.031 0.031 1 1 0 0 0 0.031 0.062 1 1 0 0 0 0.031 0.031 1 1 0 0 0 0.031 0.031 1 1 0 0 0 0.031 0.031 1 1 0 0 0 0.031 0.031 1 1 0 0 0 0.063 0.031 1 1 0 0 0 0.031 0.031 1 1 0 0 0 0.031 0.031 1 1 0 0 0 0.063 0.031 1 1 0 0 0 0.125 0.062 l 2.469 1.438 a 1.01 1.01 0 1 0 1 -1.75 l -2.094 -1.219 0 -3.406 a 1 1 0 0 0 -1.094 -1.031 z" style="fill:#1c2023;opacity:1;fill-opacity:1;color:#000"/>
   <path transform="translate(0,1020.3622)" d="m 16 12 c -2.376 0 -4.485 1.191 -5.75 3 l 1.281 0 c 1.099 -1.227 2.693 -2 4.469 -2 c 3.314 0 6 2.686 6 6 c 0 3.314 -2.686 6 -6 6 c -3.314 0 -6 -2.686 -6 -6 l -1 0 c 0 3.866 3.134 7 7 7 c 3.866 0 7 -3.134 7 -7 c 0 -3.866 -3.134 -7 -7 -7 z" style="fill:#1c2023;opacity:1;fill-opacity:1;stroke:none"/>
  </g>
 </g>
</svg>
