<svg viewBox="0 0 32 32" xmlns="http://www.w3.org/2000/svg">
 <defs>
  <radialGradient gradientTransform="matrix(0.71642 0 0 0.08955 -7.284 25.94)" r="33.5" cy="56.5" cx="32.5" id="radialGradient3031" gradientUnits="userSpaceOnUse">
   <stop style="stop-color:#000;stop-opacity:1"/>
   <stop style="stop-color:#000;stop-opacity:0" offset="1"/>
  </radialGradient>
 </defs>
 <path style="fill:url(#radialGradient3031);opacity:0.3;fill-opacity:1;stroke:none" d="m 40 30.999972 a 24 3 0 0 1 -48 0 24 3 0 1 1 48 0 z"/>
 <rect style="fill:#95c7ae;fill-opacity:1;stroke:none" width="26" ry="1" rx="1.04" y="0.998" x="3" height="18"/>
 <path style="fill:#fff1ed;opacity:0.6;fill-opacity:1;stroke:none" d="m 16 3 l -6 6 l 3 0 l 0 13.5 l 6 0 l 0 -13.5 l 3 0 l -6 -6 z"/>
 <path style="fill:#95aec7;fill-opacity:1;stroke:none" d="m 32 12.668 0 18.328 -32 0 0 -17 15 0 1.5 -3 13.976 0.062 c 0.762 0 1.524 0.805 1.524 1.61 z"/>
 <path style="fill:#000;opacity:0.15;fill-opacity:1;stroke:none" d="m 0 29.998 0 1 32 0 0 -1 z"/>
 <path style="fill:#000;opacity:0.03;fill-opacity:1;stroke:none" d="m 16.5 10.998 -1.5 3 -15 0 0 1 15.5 0 1.5 -3 13.469 0.062 c 0.762 0 1.531 0.767 1.531 1.531 l 0 -1 c 0 0 -0.769 -1.531 -1.531 -1.531 z"/>
 <path style="fill:#000;opacity:0.03;fill-opacity:1;stroke:none" d="m 4 0.998 c -0.554 0 -1 0.446 -1 1 l 0 1 c 0 -0.554 0.446 -1 1 -1 l 24 0 c 0.554 0 1 0.446 1 1 l 0 -1 c 0 -0.554 -0.446 -1 -1 -1 z"/>
</svg>
