<svg xmlns="http://www.w3.org/2000/svg" width="24" height="24" version="1.1">
 <defs>
  <linearGradient id="linearGradient3605" x1="7" x2="19" y1="12" y2="5" gradientTransform="matrix(.23064 .97304 .97304 -.23064 -2.4442 3.0913)" gradientUnits="userSpaceOnUse">
   <stop offset="0" stop-color="#dfe2e5" stop-opacity=".5"/>
   <stop offset="1" stop-color="#dfe2e5" stop-opacity="0"/>
  </linearGradient>
  <linearGradient id="linearGradient3611" x1="7" x2="17" y1="12" y2="12" gradientTransform="matrix(-.23064 -.97304 -.97304 .23064 26.444 20.909)" gradientUnits="userSpaceOnUse">
   <stop offset="0" stop-color="#dfe2e5"/>
   <stop offset="1" stop-color="#dfe2e5" stop-opacity=".5"/>
  </linearGradient>
 </defs>
 <path fill="url(#linearGradient3611)" d="m13.615 18.811c3.7618-0.89167 6.0884-4.664 5.1968-8.4258-0.89167-3.7618-4.664-6.0884-8.4258-5.1968l0.46129 1.9461c2.6869-0.6369 5.3815 1.025 6.0184 3.712 0.6369 2.6869-1.025 5.3815-3.712 6.0184-1.265 0.29984-0.80366 2.2459 0.46129 1.9461z"/>
 <path fill="url(#linearGradient3605)" d="m13.615 18.811-0.462-1.946c-2.687 0.637-5.3813-1.025-6.0182-3.712s1.025-5.3813 3.7122-6.0182l-0.462-1.9461c-3.7613 0.8917-6.0879 4.664-5.1963 8.4263 0.8917 3.761 4.664 6.088 8.4263 5.196z"/>
</svg>
