<svg xmlns="http://www.w3.org/2000/svg" viewBox="0 0 48 48">
 <path d="m 6 9.998 0 14 21 0 0 -7 -1 -6 -8 0 -1 -2 -10 0 c -0.5 0 -1 0.5 -1 1 z" style="fill:#95c7ae;fill-opacity:1;stroke:none"/>
 <path d="M 7,9 C 6.5,9 6,9.5 6,10 l 0,1 c 0,-0.5 0.5,-1 1,-1 l 9,0 1,2 9,0 1,6 0,-1 -1,-6 -8,0 -1,-2 z" style="fill:#000;opacity:0.015;fill-opacity:1;stroke:none"/>
 <rect x="8" height="4" y="11.998" style="fill:#fffdf0;fill-opacity:1;stroke:none" width="10"/>
 <path d="m 27 11.998 0 14 -21 0 0 -13 10 0 1 -2 9 0 c 0.5 0 1 0.5 1 1 z" style="fill:#95aec7;fill-opacity:1;stroke:none"/>
 <path d="m 6 24.998 0 1 21 0 0 -1 z" style="fill:#000;opacity:0.075;fill-opacity:1;stroke:none"/>
 <path d="m 17 11 -1 2 -10 0 0 1 11 0 1 -2 8 0 c 0.5 0 1 0.5 1 1 l 0 -1 c 0 -0.5 -0.5 -1 -1 -1 z" style="fill:#000;opacity:0.015;fill-opacity:1;stroke:none"/>
 <path d="m 7 8.998 c -0.251 0 -0.5 0.126 -0.688 0.314 c -0.093 0.093 -0.172 0.202 -0.227 0.318 c 0 0 0 0.001 0 0.002 c -0.054 0.117 -0.086 0.241 -0.086 0.365 c 0 0.001 0 0.001 0 0.002 l 0 1 l 0 1.998 l 0 0.002 l 0 1 l 0 9.998 l 0 1 l 0 1 l 21 0 l 0 -1 l 0 -1 l 0 -5.998 l 0 -1 l 0 -0.002 l 0 -3.998 l 0 -1 c 0 0 0 -0.002 0 -0.002 c 0 -0.124 -0.032 -0.249 -0.086 -0.365 c 0 0 0 -0.002 0 -0.002 c -0.054 -0.117 -0.133 -0.227 -0.227 -0.32 c -0.188 -0.188 -0.438 -0.313 -0.688 -0.313 l -8 0 l -1 -1.998 l 0 -0.002 l -10 0 z" style="fill:#fff;opacity:0.5;fill-opacity:1;stroke:none"/>
 <path d="m 21 22.998 0 14 21 0 0 -7 -1 -6 -8 0 -1 -2 -10 0 c -0.5 0 -1 0.5 -1 1 z" style="fill:#95c7ae;fill-opacity:1;stroke:none"/>
 <path d="m 22 22 c -0.5 0 -1 0.5 -1 1 l 0 1 c 0 -0.5 0.5 -1 1 -1 l 9 0 1 2 9 0 1 6 0 -1 -1 -6 -8 0 -1 -2 z" style="fill:#000;opacity:0.03;fill-opacity:1;stroke:none"/>
 <rect x="23" y="24.998" height="4" style="fill:#fffdf0;fill-opacity:1;stroke:none" width="10"/>
 <path d="m 42 24.998 0 14 -21 0 0 -13 10 0 1 -2 9 0 c 0.5 0 1 0.5 1 1 z" style="fill:#95aec7;fill-opacity:1;stroke:none"/>
 <path d="m 21 37.998 0 1 21 0 0 -1 z" style="fill:#000;opacity:0.15;fill-opacity:1;stroke:none"/>
 <path d="m 32 24 -1 2 -10 0 0 1 11 0 1 -2 8 0 c 0.5 0 1 0.5 1 1 l 0 -1 c 0 -0.5 -0.5 -1 -1 -1 z" style="fill:#000;opacity:0.03;fill-opacity:1;stroke:none"/>
</svg>
