<svg xmlns="http://www.w3.org/2000/svg" width="16" height="16" version="1.1">
 <path style="fill:#d6dade" d="M 6,11 V 9 H 5 C 4,9 4,10 4,10 V 14 H 2 V 10 C 2,7 5,7 5,7 H 6 V 5 L 10.5,8 Z"/>
 <path style="fill:#d6dade" d="M 13,15 C 13,15 14,15 14,14 V 2 C 14,1 13,1 13,1 H 3 C 3,1 2,1 2,2 V 6 H 4 V 3 H 12 V 13 H 4 2 V 14 C 2,15 3,15 3,15 Z"/>
</svg>
