<svg xmlns="http://www.w3.org/2000/svg" width="16" height="16" version="1.1">
 <path style="fill:#d6dade" d="M 9,2 14,5 9,8 V 6 H 6 C 4.32,6 3,7.321 3,9 3,10.679 4.32,12 6,12 H 11 V 14 H 6 C 3.25,14 1,11.753 1,9 1,6.247 3.25,4 6,4 H 9 Z"/>
</svg>
