<svg xmlns="http://www.w3.org/2000/svg" width="16" height="16" version="1.1">
 <path style="fill:#d6dade" d="M 7,1 2,15 H 4.5 L 5.56,12 H 10.44 L 11.5,15 H 14 L 9,1 Z M 8,5 9.75,10 H 6.25 Z"/>
</svg>
