<svg xmlns="http://www.w3.org/2000/svg" width="16" height="16" version="1.1">
 <path style="fill:#d6dade" d="M 5,12 8,16 11,12 Z"/>
 <path style="fill:#d6dade" d="M 14,6.5 C 14,5.685 13.34,5 12.5,5 H 9.5 V 6 H 12.5 C 12.715,6 13,6.305 13,6.5 V 7 H 10.5 C 10.04,7 9.63,7.19 9.375,7.485 9.12,7.775 9,8.14 9,8.5 9,8.86 9.135,9.225 9.39,9.515 9.645,9.805 10.045,10 10.5,10 H 14 M 10.5,8 H 13 V 9 H 10.5 C 10.3,9 10.215,8.945 10.14,8.86 10.065,8.775 10,8.64 10,8.5 10,8.36 10.05,8.225 10.125,8.14 10.2,8.06 10.29,8 10.5,8 Z"/>
 <path style="fill:#d6dade" d="M 4.3676,2 1.4559,10 H 2.92 L 3.6397,8 H 6.1875 L 6.9154,10 H 8.3713 L 5.4596,2 Z M 4.9136,4.5 5.8235,7 H 4.0037 Z"/>
</svg>
