<svg xmlns="http://www.w3.org/2000/svg" width="16" height="16" version="1.1">
 <path d="M 15.111113,1.0001468 C 15.603557,1.0001468 16,1.5077106 16,2.0001543 l 0,9.9996767 c 0,0.492403 -0.396443,1.000007 -0.888887,1.000007 l -3.669113,0 L 9.123916,12.200332 6.29941,11.901766 3.9745954,12.075409 1.8880696,11.800579 C 1.3998825,11.736276 1.0602333,11.66762 1.049232,11.17534 L 0.87434004,3.3493214 C 0.86333791,2.8570005 1.92192,2.9086085 2.387761,2.7490669 L 7.4943722,1.0001468 Z" style="fill:#d6dade;opacity:0.3"/>
 <path style="fill:#d6dade" d="M 0.88906915,1.0001468 C 0.39666549,1.0001468 0,1.5077106 0,2.0001543 l 0,9.9996767 c 0,0.492403 0.39666549,1.000007 0.88906915,1.000007 l 2.71095785,0 2.000015,2.000015 2.000015,-2.000015 4.042986,0 c 0.03309,-0.02711 0.06613,-0.05067 0.09922,-0.07813 2.41933,-2.103955 3.155094,-5.8472152 0.911726,-8.3564945 C 11.77325,3.5801592 10.473038,2.9912083 9.1875561,2.9784882 8.233621,2.9690642 6.8879317,3.2773957 6.1266419,3.9769329 4.937537,5.0698291 4.5849212,7.0283566 5.763358,8.2658779 6.1775835,8.7009376 7.0080494,8.96776 7.8129562,8.9870473 8.9136533,8.9262684 9.6310654,8.2198544 9.7305818,7.31709 9.7342618,5.9757235 8.6547845,5.939636 8.1675577,6.3482259 7.9754722,6.5565355 7.9243274,6.9174042 8.1574016,7.1169817 c 0.1236489,0.1055528 0.3353125,0.1323202 0.4460973,-0.00781 0.054348,-0.068708 0.069615,-0.185593 -0.010936,-0.2421894 -0.036196,-0.02504 -0.094975,-0.029912 -0.1210945,0.01172 -0.00732,0.016132 -0.00976,0.042645 0.010156,0.053125 0.00732,0.0042 0.021876,0.00445 0.021876,-0.00392 l 0,-0.00625 c -0.01048,-0.00308 0,-0.00587 0,-0.00625 0.00728,-0.00352 0.017968,0.00364 0.017968,0.010936 0.0042,0.020876 -0.015536,0.039588 -0.034376,0.04375 -0.049168,0.011192 -0.084052,-0.035552 -0.094532,-0.078125 C 8.3763444,6.7958977 8.4679703,6.7235387 8.555843,6.7130586 8.7333683,6.6923305 8.8644189,6.8609762 8.876939,7.0232174 8.9004752,7.3289317 8.6083918,7.5483613 8.3261536,7.5607214 7.8264259,7.5827536 7.279273,7.105704 7.2687929,6.6419645 7.2554048,5.8631443 7.7398548,5.0247992 8.7313027,4.999853 10.574346,4.9773008 11.02828,6.4625836 11,7.5638598 10.957216,9.2714566 9.9449594,10.921595 7.3687925,10.999853 4.9430863,10.898556 2.8701791,8.3070246 3.0000001,6.0095598 3.1370807,3.5773871 5.6222938,1.7453883 7.8656838,1.0001468 Z"/>
</svg>
