<svg xmlns="http://www.w3.org/2000/svg" width="24" height="24" viewBox="0 0 24 24">
 <defs>
  <style id="current-color-scheme" type="text/css">
   .ColorScheme-Text { color:#d6dade; } .ColorScheme-Highlight { color:#4285f4; }
  </style>
 </defs>
 <path style="fill:currentColor" class="ColorScheme-Text" d="M 3 0.98046875 L 3 4.9804688 L 13 4.9804688 L 13 0.98046875 L 3 0.98046875 z M 6 5.9804688 L 6 6.9804688 L 7 6.9804688 L 7 8.9804688 L 6 8.9804688 L 6 9.9804688 L 10 9.9804688 L 10 8.9804688 L 9 8.9804688 L 9 6.9804688 L 10 6.9804688 L 10 5.9804688 L 6 5.9804688 z M 3 10.980469 L 3 14.980469 L 13 14.980469 L 13 10.980469 L 3 10.980469 z" transform="translate(4 4)"/>
</svg>
