<svg xmlns="http://www.w3.org/2000/svg" width="24" height="24" viewBox="0 0 24 24">
 <defs>
  <style id="current-color-scheme" type="text/css">
   .ColorScheme-Text { color:#d6dade; } .ColorScheme-Highlight { color:#4285f4; }
  </style>
 </defs>
 <path style="fill:currentColor" class="ColorScheme-Text" d="M 1 2 L 1 14 L 3 14 L 3 2 L 1 2 z M 5 3 L 5 5 L 10.996094 5 C 11.423954 5 11.994141 5.61414 11.994141 6 L 11.994141 7 L 6.9980469 7 C 6.0794269 7 5.264 7.38396 4.75 7.96875 C 4.23596 8.55354 3.99361 9.2794 4 10 C 4.006 10.72062 4.26929 11.45275 4.78125 12.03125 C 5.29321 12.60979 6.0903469 13 6.9980469 13 L 13.994141 13 L 13.994141 12.15625 C 14.009741 12.0625 13.994141 12 13.994141 12 L 13.994141 6 C 13.994141 4.3657 12.675094 3 10.996094 3 L 5 3 z M 6.9980469 9 L 11.994141 9 L 11.994141 11 L 6.9980469 11 C 6.6004569 11 6.43298 10.89021 6.28125 10.71875 C 6.12952 10.54729 6.00248 10.27938 6 10 C 5.998 9.72062 6.10478 9.44646 6.25 9.28125 C 6.39523 9.11604 6.5759869 9 6.9980469 9 z" transform="translate(4 4)"/>
</svg>
