<svg xmlns="http://www.w3.org/2000/svg" width="24" height="24" viewBox="0 0 24 24">
 <defs>
  <style id="current-color-scheme" type="text/css">
   .ColorScheme-Text { color:#d6dade; } .ColorScheme-Highlight { color:#4285f4; }
  </style>
 </defs>
 <path style="fill:currentColor" class="ColorScheme-Text" d="M 1 3.0039062 L 1 13.003906 L 5 13.003906 L 5 3.0039062 L 1 3.0039062 z M 11 3.0039062 L 11 13.003906 L 15 13.003906 L 15 3.0039062 L 11 3.0039062 z M 6 6.0039062 L 6 10.003906 L 7 10.003906 L 7 9.0039062 L 9 9.0039062 L 9 10.003906 L 10 10.003906 L 10 6.0039062 L 9 6.0039062 L 9 7.0039062 L 7 7.0039062 L 7 6.0039062 L 6 6.0039062 z" transform="translate(4 4)"/>
</svg>
