<svg xmlns="http://www.w3.org/2000/svg" width="24" height="24" viewBox="0 0 24 24">
 <defs>
  <style id="current-color-scheme" type="text/css">
   .ColorScheme-Text { color:#d6dade; } .ColorScheme-Highlight { color:#4285f4; }
  </style>
 </defs>
 <path style="fill:currentColor" class="ColorScheme-Text" d="M 2.9960938 0.00390625 L 2.9960938 5.0039062 L 0.99609375 5.0039062 L 0.99609375 7.0039062 L 14.996094 7.0039062 L 14.996094 5.0039062 L 12.996094 5.0039062 L 12.996094 0.00390625 L 8.9960938 0.00390625 L 8.9960938 5.0039062 L 6.9960938 5.0039062 L 6.9960938 0.00390625 L 2.9960938 0.00390625 z M 2.9960938 9.0039062 L 2.9960938 14.003906 L 0.99609375 14.003906 L 0.99609375 16.003906 L 14.996094 16.003906 L 14.996094 14.003906 L 12.996094 14.003906 L 12.996094 9.0039062 L 8.9960938 9.0039062 L 8.9960938 14.003906 L 6.9960938 14.003906 L 6.9960938 9.0039062 L 2.9960938 9.0039062 z" transform="translate(4 4)"/>
</svg>
