<svg xmlns="http://www.w3.org/2000/svg" width="24" height="24" viewBox="0 0 24 24">
 <defs>
  <style id="current-color-scheme" type="text/css">
   .ColorScheme-Text { color:#d6dade; } .ColorScheme-Highlight { color:#4285f4; }
  </style>
 </defs>
 <path style="fill:currentColor" class="ColorScheme-Text" d="M 5 3 L 5 4 L 2 4 L 2 12 L 5 12 L 5 13 L 14 13 L 14 10 L 5 10 L 5 11 L 3 11 L 3 9 L 4 9 L 4 7 L 3 7 L 3 5 L 5 5 L 5 6 L 14 6 L 14 3 L 5 3 z" transform="translate(4 4)"/>
</svg>
