<svg xmlns="http://www.w3.org/2000/svg" width="24" height="24" viewBox="0 0 24 24">
 <defs>
  <style id="current-color-scheme" type="text/css">
   .ColorScheme-Text { color:#d6dade; } .ColorScheme-Highlight { color:#4285f4; }
  </style>
 </defs>
 <path style="fill:currentColor" class="ColorScheme-Text" d="M 6 3 L 6 4 L 1 4 L 1 5 L 6 5 L 6 7 L 10 7 L 10 5 L 15 5 L 15 4 L 10 4 L 10 3 L 6 3 z M 12 8 L 12 10 L 10 10 L 10 11 L 12 11 L 12 13 L 13 13 L 13 11 L 15 11 L 15 10 L 13 10 L 13 8 L 12 8 z" transform="translate(4 4)"/>
</svg>
