<svg xmlns="http://www.w3.org/2000/svg" width="24" height="24" viewBox="0 0 24 24">
 <defs>
  <style id="current-color-scheme" type="text/css">
   .ColorScheme-Text { color:#d6dade; } .ColorScheme-Highlight { color:#4285f4; }
  </style>
 </defs>
 <path style="fill:currentColor" class="ColorScheme-Text" d="M 2.5 1 C 1.67157 1 1 1.67157 1 2.5 C 1.00089 3.1349 1.40141 3.7005094 2 3.9121094 L 2 12 L 1 12 L 1 15 L 4 15 L 4 12 L 3 12 L 3 3.9121094 C 3.42591 3.7609994 3.7609994 3.42591 3.9121094 3 L 12 3 L 12 4 L 15 4 L 15 1 L 12 1 L 12 2 L 3.9121094 2 C 3.7004794 1.40141 3.13489 1.00089 2.5 1 z" transform="translate(4 4)"/>
</svg>
