<svg xmlns="http://www.w3.org/2000/svg" width="24" height="24" version="1.1">
 <defs>
  <style id="current-color-scheme" type="text/css">
   .ColorScheme-Text { color:#d6dade; } .ColorScheme-Highlight { color:#4285f4; }
  </style>
 </defs>
 <g transform="matrix(1,0,0,1,4,4)">
  <path class="ColorScheme-Text" d="M 7,5 V 12 L 3.5,8.5 2,10 8,16 14,10 12.5,8.5 9,12 V 5 Z" style="fill:currentColor"/>
  <circle class="ColorScheme-Text" cx="8" cy="2" r="2" style="fill:currentColor"/>
 </g>
</svg>
