<svg xmlns="http://www.w3.org/2000/svg" width="24" height="24" version="1.1">
 <defs>
  <style id="current-color-scheme" type="text/css">
   .ColorScheme-Text { color:#d6dade; } .ColorScheme-Highlight { color:#4285f4; }
  </style>
 </defs>
 <path style="fill:currentColor" class="ColorScheme-Text" d="M 15,5 V 7 H 10.619141 5 V 9 H 9.3828125 11.265625 12.382813 14.619141 15 v 2 l 4,-3 z m 0,8 v 2 H 14.619141 12.736328 11.619141 9.3828125 5 v 2 H 10.619141 13.382813 15 v 2 l 4,-3 z"/>
</svg>
