<svg xmlns="http://www.w3.org/2000/svg" width="24" height="24" version="1.1">
 <defs>
  <style id="current-color-scheme" type="text/css">
   .ColorScheme-Text { color:#d6dade; } .ColorScheme-Highlight { color:#4285f4; }
  </style>
 </defs>
 <path style="fill:currentColor" class="ColorScheme-Text" d="M 6,4 C 4.892,4 4,4.892 4,6 v 6 6 c 0,1.108 0.892,2 2,2 h 6 6 c 1.108,0 2,-0.892 2,-2 V 12 6 C 20,4.892 19.108,4 18,4 h -6 z m 2,4 h 3 v 8 H 8 Z m 5,0 h 3 v 8 h -3 z"/>
</svg>
