<svg xmlns="http://www.w3.org/2000/svg" width="24" height="24" version="1.1">
 <defs>
  <style id="current-color-scheme" type="text/css">
   .ColorScheme-Text { color:#d6dade; } .ColorScheme-Highlight { color:#4285f4; }
  </style>
 </defs>
 <g transform="translate(4,-2)">
  <path style="fill:currentColor" class="ColorScheme-Text" d="M 8,8 C 9.66,8 11,9.34 11,11 11,12.65 9.66,14 8,14 6.34,14 5,12.65 5,11 5,9.34 6.34,8 8,8 Z M 8,16 C 14,15.99 14,20 14,20 V 21 H 2 V 20 C 2,20 2,16 8,16 Z"/>
 </g>
</svg>
