<svg xmlns="http://www.w3.org/2000/svg" width="24" height="24" version="1.1">
 <defs>
  <style id="current-color-scheme" type="text/css">
   .ColorScheme-Text { color:#d6dade; } .ColorScheme-Highlight { color:#4285f4; }
  </style>
 </defs>
 <path style="fill:currentColor" class="ColorScheme-Text" d="m 14,5 v 2 h -4 v 2 h 4 v 2 L 16.5,9.5 19,8 16.5,6.5 Z M 5,6 v 4 H 9 V 6 Z M 10,13 7.5,14.5 5,16 7.5,17.5 10,19 v -2 h 4 v -2 h -4 z m 5,1 v 4 h 4 v -4 z"/>
</svg>
