<svg xmlns="http://www.w3.org/2000/svg" width="24" height="24" viewBox="0 0 24 24">
 <defs>
  <style id="current-color-scheme" type="text/css">
   .ColorScheme-Text { color:#d6dade; } .ColorScheme-Highlight { color:#4285f4; }
  </style>
 </defs>
 <path style="fill:currentColor" class="ColorScheme-Text" d="M 7.9941406 2 C 6.1241406 2 4.6002219 3.5344719 4.5449219 5.4511719 C 4.4989919 5.4626419 4.4533762 5.4810563 4.4101562 5.5039062 C 3.9801062 5.7309462 3.8698125 6.4401031 4.1640625 7.0957031 C 4.4007725 7.6231531 4.821585 7.9495631 5.203125 7.9394531 C 5.490345 9.6922531 6.6335406 11 7.9941406 11 C 7.9982406 11 8.0017294 11.00002 8.0058594 11 C 9.3664594 11 10.509675 9.6923531 10.796875 7.9394531 C 11.178415 7.9495431 11.597254 7.6231531 11.833984 7.0957031 C 12.128224 6.4400631 12.019884 5.7309063 11.589844 5.5039062 C 11.546564 5.4810563 11.501068 5.4626419 11.455078 5.4511719 C 11.399758 3.5344719 9.8758594 2 8.0058594 2 C 8.0017594 1.99998 7.9982706 2 7.9941406 2 z M 10.394531 11 C 10.105641 11.70052 9.1205125 12.226562 7.9453125 12.226562 C 6.7755125 12.226562 5.7996594 11.707439 5.5058594 11.011719 C 3.0367594 11.269869 1.2376844 11.901218 1.0214844 12.648438 C 1.0184844 12.655538 1.0234844 12.664745 1.0214844 12.671875 C 1.0144844 12.698765 1.0127656 12.7227 1.0097656 12.75 C 1.0087656 12.76233 1 12.770573 1 12.783203 C 0.99991 12.787303 1 12.788969 1 12.792969 L 1 14.642578 C 1 14.840118 1.1557094 15 1.3496094 15 L 14.650391 15 C 14.844291 15 15 14.840108 15 14.642578 L 15 12.792969 C 15 12.784769 15.00035 12.779634 15 12.771484 C 14.998 12.728184 14.979197 12.691027 14.966797 12.648438 C 14.745797 11.892437 12.908531 11.252 10.394531 11 z" transform="translate(4 4)"/>
</svg>
