<svg xmlns="http://www.w3.org/2000/svg" width="24" height="24" viewBox="0 0 24 24">
 <defs>
  <style id="current-color-scheme" type="text/css">
   .ColorScheme-Text { color:#d6dade; } .ColorScheme-Highlight { color:#4285f4; }
  </style>
 </defs>
 <path style="fill:currentColor" class="ColorScheme-Text" d="M 3.21875 2 C 2.54894 2 2 2.5248 2 3.1875 L 2 7 L 4 7 L 4 4 L 7 4 L 7 2 L 3.21875 2 z M 9 2 L 9 4 L 12 4 L 12 7 L 14 7 L 14 3.1875 C 14 2.5248 13.45106 2 12.78125 2 L 9 2 z M 8 4 L 6 6 L 10 6 L 8 4 z M 5 7 L 5 9 L 11 9 L 11 7 L 5 7 z M 2 9 L 2 12.8125 C 2 13.4752 2.54894 14 3.21875 14 L 7 14 L 7 12 L 4 12 L 4 9 L 2 9 z M 12 9 L 12 12 L 9 12 L 9 14 L 12.78125 14 C 13.45106 14 14 13.4752 14 12.8125 L 14 9 L 12 9 z M 6 10 L 8 12 L 10 10 L 6 10 z" transform="translate(4 4)"/>
</svg>
