<svg xmlns="http://www.w3.org/2000/svg" viewBox="0 0 32 32">
 <defs>
  <radialGradient id="radialGradient3031" gradientUnits="userSpaceOnUse" gradientTransform="matrix(1,0,0,0.10447761,0,50.597015)" cx="32.5" cy="56.5" r="33.5">
   <stop style="stop-color:#000;stop-opacity:1"/>
   <stop offset="1" style="stop-color:#000;stop-opacity:0"/>
  </radialGradient>
 </defs>
 <g transform="translate(0,-1020.3622)">
  <path d="m 66 56.5 a 33.5 3.5 0 1 1 -67 0 33.5 3.5 0 1 1 67 0 z" transform="matrix(0.71641791,0,0,0.85714286,-7.2835821,999.9336)" style="fill:url(#radialGradient3031);opacity:0.3;fill-opacity:1;stroke:none"/>
  <g transform="matrix(0.5,0,0,0.5,39,520.6811)">
   <path d="m -78 1008.42 0 42.823 64 0 0 -21.412 -3.048 -18.353 l -23.952 -0.118 l -3 -6 -30.952 0 c -1.524 0 -3.048 1.529 -3.048 3.059 z" style="fill:#d3869b;fill-opacity:1;stroke:none"/>
   <rect y="1013.36" x="-73" height="11.882" width="31.571" style="fill:#fffdf0;fill-opacity:1;stroke:none"/>
   <path d="m -74.938 1005.36 c -1.524 0 -3.063 1.533 -3.063 3.063 l 0 2 c 0 -1.529 1.539 -3.063 3.063 -3.063 l 29.938 0 3 6 24.938 0.125 3.063 18.344 0 -2 -3.063 -18.344 -23.938 -0.125 -3 -6 z" style="fill:#000;opacity:0.03;fill-opacity:1;stroke:none"/>
   <path d="m -14 1014.54 0 42.824 -64 0 0 -40 30 0 3 -6 27.952 0.118 c 1.524 0 3.048 1.529 3.048 3.059 z" style="fill:#83a598;fill-opacity:1;stroke:none"/>
   <path d="m -78 1055.36 0 2 64 0 0 -2 z" style="fill:#000;opacity:0.15;fill-opacity:1;stroke:none"/>
   <path d="m -45 1011.36 -3 6 -30 0 0 2 31 0 3 -6 26.938 0.125 c 1.524 0 3.063 1.533 3.063 3.063 l 0 -2 c 0 -1.529 -1.539 -3.063 -3.063 -3.063 z" style="fill:#000;opacity:0.03;fill-opacity:1;stroke:none"/>
   <g transform="matrix(2,0,0,2,-17.15747,-1029.5912)" style="opacity:1">
    <g transform="translate(-22.421265,1025.4767)" style="fill:#282828;fill-opacity:1">
     <g transform="translate(0,-1036.3622)" style="fill:#282828;fill-rule:evenodd">
      <path d="m 1 1046.36 4 -5 3.282 3.678 2.218 -2.178 4.5 6.5 -3 2 -9 0 z" style="fill:#282828"/>
     </g>
    </g>
    <path d="m -19.421 1026.48 c -1.108 0 -2 0.892 -2 2 l 0 10 c 0 1.108 0.892 2 2 2 l 10 0 c 1.108 0 2 -0.892 2 -2 l 0 -10 c 0 -1.108 -0.892 -2 -2 -2 z m 0 2 10 0 0 10 -10 0 z" style="fill:#282828;fill-opacity:1"/>
   </g>
  </g>
 </g>
</svg>
