<svg xmlns="http://www.w3.org/2000/svg" viewBox="0 0 32 32">
 <path d="m 2 2.998 0 13 16 0 0 -7 -1 -5 -5 0 -1 -2 -8 0 c -0.5 0 -1 0.5 -1 1 z" style="fill:#d3869b;fill-opacity:1;stroke:none"/>
 <path d="M 3,2 C 2.5,2 2,2.5 2,3 L 2,4 C 2,3.5 2.5,3 3,3 l 7,0 1,2 6,0 1,5 0,-1 -1,-5 -5,0 -1,-2 z" style="fill:#000;opacity:0.015;fill-opacity:1;stroke:none"/>
 <rect width="10" height="3" y="4.998" x="4" style="fill:#fffdf0;fill-opacity:1;stroke:none"/>
 <path d="m 18 4.998 0 13 -16 0 0 -12 7 0 1 -2 7 0 c 0.5 0 1 0.5 1 1 z" style="fill:#83a598;fill-opacity:1;stroke:none"/>
 <path d="m 2 16.998 0 1 16 0 0 -1 z" style="fill:#000;opacity:0.075;fill-opacity:1;stroke:none"/>
 <path d="m 10,4 -1,2 -7,0 0,1 8,0 1,-2 6,0 c 0.5,0 1,0.5 1,1 L 18,5 C 18,4.5 17.5,4 17,4 Z" style="fill:#000;opacity:0.015;fill-opacity:1;stroke:none"/>
 <path d="m 3 1.998 c -0.251 0 -0.5 0.126 -0.688 0.314 c -0.093 0.093 -0.172 0.202 -0.227 0.318 c 0 0 0 0.001 0 0.002 c -0.054 0.117 -0.086 0.241 -0.086 0.365 c 0 0.001 0 0.001 0 0.002 l 0 1 l 0 1.998 l 0 0.002 l 0 1 l 0 8.998 l 0 1 l 0 1 l 16 0 l 0 -1 l 0 -1 l 0 -5.998 l 0 -1 l 0 -0.002 l 0 -2.998 l 0 -1 c 0 0 0 -0.002 0 -0.002 c 0 -0.124 -0.032 -0.249 -0.086 -0.365 c 0 0 0 -0.002 0 -0.002 c -0.054 -0.117 -0.133 -0.227 -0.227 -0.32 c -0.188 -0.188 -0.438 -0.313 -0.688 -0.313 l -5 0 l -1 -1.998 l 0 -0.002 l -8 0 z" style="fill:#fff;opacity:0.6;fill-opacity:1;stroke:none"/>
 <path d="m 14 14.998 0 13 16 0 0 -7 -1 -5 -5 0 -1 -2 -8 0 c -0.5 0 -1 0.5 -1 1 z" style="fill:#d3869b;fill-opacity:1;stroke:none"/>
 <path d="m 15 14 c -0.5 0 -1 0.5 -1 1 l 0 1 c 0 -0.5 0.5 -1 1 -1 l 7 0 1 2 6 0 1 5 0 -1 -1 -5 -5 0 -1 -2 z" style="fill:#000;opacity:0.03;fill-opacity:1;stroke:none"/>
 <rect width="10" height="3" y="16.998" x="16" style="fill:#fffdf0;fill-opacity:1;stroke:none"/>
 <path d="m 30 16.998 0 13 -16 0 0 -12 7 0 1 -2 7 0 c 0.5 0 1 0.5 1 1 z" style="fill:#83a598;fill-opacity:1;stroke:none"/>
 <path d="m 14 28.998 0 1 16 0 0 -1 z" style="fill:#000;opacity:0.15;fill-opacity:1;stroke:none"/>
 <path d="m 22 16 -1 2 -7 0 0 1 8 0 1 -2 6 0 c 0.5 0 1 0.5 1 1 l 0 -1 c 0 -0.5 -0.5 -1 -1 -1 z" style="fill:#000;opacity:0.03;fill-opacity:1;stroke:none"/>
</svg>
