<svg xmlns="http://www.w3.org/2000/svg" width="16" viewBox="0 0 4.5155557 4.5155557" height="16">
 <g transform="translate(0,-9.0311124)">
  <g style="fill:#95aec7;opacity:1;fill-opacity:1">
   <path d="m 2.54 13.547 0 -3.104 -0.564 0 0 3.104 z m -0.847 -3.104 -1.693 -1.129 l 0 2.822 l 1.693 1.129 m 2.822 -1.129 0 -2.822 -1.693 1.129 0 2.822 z m -0.282 -3.104 c -0.847 0 -1.411 0.282 -1.976 0.753 -0.564 -0.47 -1.129 -0.753 -1.976 -0.753 l 1.693 1.129 0.564 0 z" style="fill:#95aec7;stroke:none;fill-rule:nonzero"/>
  </g>
 </g>
</svg>
