<svg xmlns="http://www.w3.org/2000/svg" viewBox="0 0 24 24">
 <defs>
  <radialGradient id="radialGradient3766" cx="11" cy="19" r="11" gradientTransform="matrix(1,0,0,0.09090909,0,17.272727)" gradientUnits="userSpaceOnUse">
   <stop style="stop-color:#000;stop-opacity:1"/>
   <stop offset="1" style="stop-color:#000;stop-opacity:0"/>
  </radialGradient>
 </defs>
 <g transform="translate(0,-1028.3622)">
  <path d="M 22 19 A 11 1 0 1 1 0 19 11 1 0 1 1 22 19 z" transform="matrix(1.1818182,0,0,1,-1,1030.3622)" style="fill:url(#radialGradient3766);opacity:0.25;fill-opacity:1;stroke:none"/>
  <path d="m 1 1032.36 0 14 22 0 0 -7 -1 -6 -8 0 -1 -2 -11 0 c -0.5 0 -1 0.5 -1 1 z" style="fill:#95c7ae;fill-opacity:1;stroke:none"/>
  <path d="m 2 1031.36 c -0.5 0 -1 0.5 -1 1 l 0 1 c 0 -0.5 0.5 -1 1 -1 l 10 0 1 2 9 0 0 6 0 -1 0 -6 -8 0 -1 -2 z" style="fill:#000;opacity:0.03;fill-opacity:1;stroke:none"/>
  <rect width="10" height="4" x="3" y="1034.36" style="fill:#fffdf0;fill-opacity:1;stroke:none"/>
  <path d="m 23 1034.43 0 14.933 -22 0 0 -14 11 0 1 -2 9 0 c 0.5 0 1 0.533 1 1.067 z" style="fill:#ae95c7;fill-opacity:1;stroke:none"/>
  <path d="m 1 1048.36 0 1 22 0 0 -1 z" style="fill:#000;opacity:0.15;fill-opacity:1;stroke:none"/>
  <path d="m 13 1033.36 -1 2 -11 0 0 1 12 0 1 -2 8 0 c 0.5 0 1 0.5 1 1 l 0 -1 c 0 -0.5 -0.5 -1 -1 -1 z" style="fill:#000;opacity:0.03;fill-opacity:1;stroke:none"/>
  <path d="m 8 1037.36 c -0.554 0 -1 0.446 -1 1 l 0 1 2 0 0 -2 z" style="fill:#1c2023;opacity:1;fill-opacity:1;stroke:none"/>
  <path d="m 11 1037.36 0 2 2 0 0 -2 z" style="fill:#1c2023;opacity:1;fill-opacity:1;stroke:none"/>
  <path d="m 15 1037.36 0 2 2 0 0 -1 c 0 -0.554 -0.446 -1 -1 -1 z" style="fill:#1c2023;opacity:1;fill-opacity:1;stroke:none"/>
  <path d="m 7 1041.36 0 2 2 0 0 -2 z" style="fill:#1c2023;opacity:1;fill-opacity:1;stroke:none"/>
  <path d="m 15 1041.36 0 2 2 0 0 -2 z" style="fill:#1c2023;opacity:1;fill-opacity:1;stroke:none"/>
  <path d="m 9 1045.36 -2 0 0 1 c 0 0.554 0.446 1 1 1 l 1 0 z" style="fill:#1c2023;opacity:1;fill-opacity:1;stroke:none"/>
  <path d="m 15 1045.36 0 2 1 0 c 0.554 0 1 -0.446 1 -1 l 0 -1 z" style="fill:#1c2023;opacity:1;fill-opacity:1;stroke:none"/>
  <path d="m 11 1045.36 0 2 2 0 0 -2 z" style="fill:#1c2023;opacity:1;fill-opacity:1;stroke:none"/>
 </g>
</svg>
