<svg xmlns="http://www.w3.org/2000/svg" width="24" height="24" version="1">
 <rect style="opacity:0.2" width="20" height="12" x="2" y="9.5" rx="1" ry="1"/>
 <path style="fill:#95c7ae" d="M 2,17 C 2,17.554 2.446,18 3,18 H 21 C 21.554,18 22,17.554 22,17 V 6 C 22,5.446 21.554,5 21,5 H 11 V 4 C 11,3.446 10.554,3 10,3 H 3 C 2.446,3 2,3.446 2,4"/>
 <rect style="opacity:0.2" width="20" height="12" x="2" y="8.5" rx="1" ry="1"/>
 <rect style="fill:#e4e4e4" width="16" height="8" x="4" y="7" rx="1" ry="1"/>
 <rect style="fill:#95aec7" width="20" height="12" x="2" y="9" rx="1" ry="1"/>
 <path style="opacity:0.1;fill:#ffffff" d="M 3,3 C 2.446,3 2,3.446 2,4 V 4.5 C 2,3.946 2.446,3.5 3,3.5 H 10 C 10.554,3.5 11,3.946 11,4.5 V 4 C 11,3.446 10.554,3 10,3 Z M 11,5 V 5.5 H 21 C 21.554,5.5 22,5.946 22,6.5 V 6 C 22,5.446 21.554,5 21,5 Z"/>
 <path style="fill:#1c2023;fill-rule:evenodd" d="m 9.4948225,11.000069 c -0.0611,0 -0.122271,0.0333 -0.145087,0.10002 L 8.4624715,14 H 10.527174 L 9.6399105,11.100089 c -0.02283,-0.06672 -0.08399,-0.10002 -0.145088,-0.10002 z M 10.527174,14 l 1.472822,4 1.472822,-4 z m 2.945644,0 h 2.064704 l -0.887265,-2.899911 c -0.04563,-0.133452 -0.24452,-0.133452 -0.290174,0 z m 2.064704,0 -3.537526,4 3.874203,-2.673905 c 0.1069,-0.07375 0.151685,-0.204444 0.110861,-0.323804 z m -3.537526,4 -3.5375245,-4 -0.447539,1.002291 c -0.04082,0.11936 0.004,0.250052 0.110862,0.323804 z"/>
</svg>
