<svg xmlns="http://www.w3.org/2000/svg" width="24" height="24" version="1">
 <rect style="opacity:0.2" width="20" height="12" x="2" y="9.5" rx="1" ry="1"/>
 <path style="fill:#95c7ae" d="M 2,17 C 2,17.554 2.446,18 3,18 H 21 C 21.554,18 22,17.554 22,17 V 6 C 22,5.446 21.554,5 21,5 H 11 V 4 C 11,3.446 10.554,3 10,3 H 3 C 2.446,3 2,3.446 2,4"/>
 <rect style="opacity:0.2" width="20" height="12" x="2" y="8.5" rx="1" ry="1"/>
 <rect style="fill:#e4e4e4" width="16" height="8" x="4" y="7" rx="1" ry="1"/>
 <rect style="fill:#95aec7" width="20" height="12" x="2" y="9" rx="1" ry="1"/>
 <path style="opacity:0.1;fill:#ffffff" d="M 3,3 C 2.446,3 2,3.446 2,4 V 4.5 C 2,3.946 2.446,3.5 3,3.5 H 10 C 10.554,3.5 11,3.946 11,4.5 V 4 C 11,3.446 10.554,3 10,3 Z M 11,5 V 5.5 H 21 C 21.554,5.5 22,5.946 22,6.5 V 6 C 22,5.446 21.554,5 21,5 Z"/>
 <path style="fill:#1c2023" d="M 8.7165,10.361 8.361,10.717 9.3161,11.672 A 1.5,1.5 0 0 0 9.0387,12.539 1.5,1.5 0 0 0 10.289,14.018 V 16.061 A 1.5,1.5 0 0 0 9.0387,17.539 1.5,1.5 0 0 0 10.539,19.039 1.5,1.5 0 0 0 12.039,17.539 1.5,1.5 0 0 0 10.789,16.061 V 14.018 A 1.5,1.5 0 0 0 11.406,13.762 L 12.316,14.672 A 1.5,1.5 0 0 0 12.039,15.54 1.5,1.5 0 0 0 13.539,17.04 1.5,1.5 0 0 0 15.039,15.54 1.5,1.5 0 0 0 13.539,14.04 1.5,1.5 0 0 0 12.672,14.317 L 11.761,13.407 A 1.5,1.5 0 0 0 12.039,12.54 1.5,1.5 0 0 0 10.539,11.04 1.5,1.5 0 0 0 9.6714,11.317 L 8.7164,10.362 Z"/>
</svg>
