<svg xmlns="http://www.w3.org/2000/svg" width="16" height="16" version="1.1">
 <path style="fill:#d6dade" d="M 1,2 C 0,2 0,3 0,3 V 14 C 0,14 0,15 1,15 H 14 C 14,15 15,15 15,14 V 3 C 15,2 14,2 14,2 Z M 2,4 H 13 V 10 H 2 Z M 2,11 H 7 V 13 H 2 Z M 8,11 H 13 V 13 H 8 Z"/>
</svg>
