<svg xmlns="http://www.w3.org/2000/svg" viewBox="0 0 32 32">
 <defs>
  <radialGradient id="radialGradient3031" gradientUnits="userSpaceOnUse" gradientTransform="matrix(1,0,0,0.10447761,0,50.597015)" cx="32.5" cy="56.5" r="33.5">
   <stop style="stop-color:#000;stop-opacity:1"/>
   <stop offset="1" style="stop-color:#000;stop-opacity:0"/>
  </radialGradient>
 </defs>
 <g transform="translate(0,-1020.3622)">
  <path d="m 66 56.5 c 0 1.933 -14.998 3.5 -33.5 3.5 -18.502 0 -33.5 -1.567 -33.5 -3.5 0 -1.933 14.998 -3.5 33.5 -3.5 18.502 0 33.5 1.567 33.5 3.5 z" transform="matrix(0.71641791,0,0,0.85714286,-7.2835821,999.9336)" style="fill:url(#radialGradient3031);opacity:0.3;fill-opacity:1;stroke:none"/>
  <g transform="matrix(0.5,0,0,0.5,20.823632,508.499)">
   <path d="m -41.647 1032.79 0 42.823 64 0 0 -21.412 -3.048 -18.353 -23.952 -0.118 -3 -6 -30.952 0 c -1.524 0 -3.048 1.53 -3.048 3.059 z" style="fill:#95c7ae;fill-opacity:1;stroke:none"/>
   <rect y="1037.73" x="-36.647" height="11.882" width="31.571" style="fill:#fffdf0;fill-opacity:1;stroke:none"/>
   <path d="m -38.585 1029.73 c -1.524 0 -3.063 1.533 -3.063 3.063 l 0 2 c 0 -1.529 1.539 -3.063 3.063 -3.063 l 29.938 0 3 6 24.938 0.125 3.063 18.344 0 -2 -3.063 -18.344 -23.938 -0.125 -3 -6 z" style="fill:#000;opacity:0.03;fill-opacity:1;stroke:none"/>
   <path d="m 22.353 1038.9 0 42.823 -64 0 0 -40 30 0 3 -6 27.952 0.118 c 1.524 0 3.048 1.53 3.048 3.059 z" style="fill:#ae95c7;fill-opacity:1;stroke:none"/>
   <path d="m -41.647 1079.73 0 2 64 0 0 -2 z" style="fill:#000;opacity:0.15;fill-opacity:1;stroke:none"/>
   <path d="m -8.647 1035.73 -3 6 -30 0 0 2 31 0 3 -6 26.938 0.125 c 1.524 0 3.063 1.533 3.063 3.063 l 0 -2 c 0 -1.529 -1.539 -3.063 -3.063 -3.063 z" style="fill:#000;opacity:0.03;fill-opacity:1;stroke:none"/>
  </g>
  <path d="m 12 13 c -0.712 0 -1 0.335 -1 1 l 0 10 c 0 0.665 0.288 1 1 1 l 7.719 0 c 0.712 0 1.281 -0.335 1.281 -1 l 0 -10 c 0 -0.665 -0.288 -1 -1 -1 l -8 0 z m 0.5 1 c 0.276 0 0.5 0.224 0.5 0.5 c 0 0.276 -0.224 0.5 -0.5 0.5 c -0.276 0 -0.5 -0.224 -0.5 -0.5 c 0 -0.276 0.224 -0.5 0.5 -0.5 z m 7 0 c 0.276 0 0.5 0.224 0.5 0.5 c 0 0.276 -0.224 0.5 -0.5 0.5 c -0.276 0 -0.5 -0.224 -0.5 -0.5 c 0 -0.276 0.224 -0.5 0.5 -0.5 z m -3.5 1 c 1.105 0 2 0.895 2 2 c 0 1.105 -0.895 2 -2 2 c -1.105 0 -2 -0.895 -2 -2 c 0 -1.105 0.895 -2 2 -2 z m -3.5 4 c 0.276 0 0.5 0.224 0.5 0.5 c 0 0.276 -0.224 0.5 -0.5 0.5 c -0.276 0 -0.5 -0.224 -0.5 -0.5 c 0 -0.276 0.224 -0.5 0.5 -0.5 z m 7 0 c 0.276 0 0.5 0.224 0.5 0.5 c 0 0.276 -0.224 0.5 -0.5 0.5 c -0.276 0 -0.5 -0.224 -0.5 -0.5 c 0 -0.276 0.224 -0.5 0.5 -0.5 z m -7 4 l 7 0 c 0.277 0 0.5 0.223 0.5 0.5 c 0 0.277 -0.223 0.5 -0.5 0.5 l -7 0 c -0.277 0 -0.5 -0.223 -0.5 -0.5 c 0 -0.277 0.223 -0.5 0.5 -0.5 z" transform="translate(0,1020.3622)" style="fill:#1c2023;opacity:1;fill-opacity:1;stroke:none"/>
 </g>
</svg>
