<svg xmlns="http://www.w3.org/2000/svg" viewBox="0 0 32 32">
 <defs>
  <radialGradient id="radialGradient3031" gradientUnits="userSpaceOnUse" gradientTransform="matrix(1,0,0,0.10447761,0,50.597015)" cx="32.5" cy="56.5" r="33.5">
   <stop style="stop-color:#000;stop-opacity:1"/>
   <stop offset="1" style="stop-color:#000;stop-opacity:0"/>
  </radialGradient>
 </defs>
 <g transform="translate(0,-1020.3622)">
  <path d="m 66 56.5 c 0 1.933 -14.998 3.5 -33.5 3.5 -18.502 0 -33.5 -1.567 -33.5 -3.5 0 -1.933 14.998 -3.5 33.5 -3.5 18.502 0 33.5 1.567 33.5 3.5 z" transform="matrix(0.71641791,0,0,0.85714286,-7.2835821,999.9336)" style="fill:url(#radialGradient3031);opacity:0.3;fill-opacity:1;stroke:none"/>
  <path d="m 0 1024.89 0 21.412 32 0 0 -10.706 -1.524 -9.177 -11.976 -0.059 -1.5 -3 -15.476 0 c -0.762 0 -1.524 0.765 -1.524 1.529 z" style="fill:#95c7ae;fill-opacity:1;stroke:none"/>
  <rect width="15.786" height="5.941" x="2.5" y="1027.36" style="fill:#fffdf0;fill-opacity:1;stroke:none"/>
  <path d="m 1.531 1023.36 c -0.762 0 -1.531 0.767 -1.531 1.531 l 0 1 c 0 -0.765 0.769 -1.531 1.531 -1.531 l 14.969 0 1.5 3 12.469 0.062 1.531 9.172 0 -1 -1.531 -9.172 -11.969 -0.062 -1.5 -3 z" style="fill:#000;opacity:0.03;fill-opacity:1;stroke:none"/>
  <path d="m 32 1027.95 0 21.412 -32 0 0 -20 15 0 1.5 -3 13.976 0.059 c 0.762 0 1.524 0.765 1.524 1.53 z" style="fill:#ae95c7;fill-opacity:1;stroke:none"/>
  <path d="m 0 1048.36 0 1 32 0 0 -1 z" style="fill:#000;opacity:0.15;fill-opacity:1;stroke:none"/>
  <path d="m 16.5 1026.36 -1.5 3 -15 0 0 1 15.5 0 1.5 -3 13.469 0.062 c 0.762 0 1.531 0.767 1.531 1.531 l 0 -1 c 0 -0.765 -0.769 -1.531 -1.531 -1.531 z" style="fill:#000;opacity:0.03;fill-opacity:1;stroke:none"/>
  <path transform="matrix(0.5,0,0,0.5,1,1019.8622)" d="m 17 38 a 3 3 0 1 1 -6 0 3 3 0 1 1 6 0 z" style="fill:#1c2023;opacity:1;fill-opacity:1;stroke:none"/>
  <path d="m 16 1032.86 c -1.146 0 -2.215 0.316 -3.125 0.875 l 1.484 1.484 c 0.501 -0.226 1.056 -0.359 1.641 -0.359 2.039 0 3.722 1.528 3.969 3.5 l 2 0 c -0.081 -0.96 -0.381 -1.863 -0.859 -2.641 -0.188 0.085 -0.39 0.141 -0.609 0.141 -0.828 0 -1.5 -0.671 -1.5 -1.5 0 -0.219 0.056 -0.421 0.141 -0.609 -0.913 -0.562 -1.989 -0.891 -3.141 -0.891 z m -3.922 1.484 c -0.939 0.819 -1.633 1.916 -1.922 3.172 0.498 0.244 0.844 0.752 0.844 1.344 0 0.592 -0.346 1.1 -0.844 1.344 0.311 1.353 1.071 2.541 2.125 3.375 l 1.438 -1.438 c -1.038 -0.723 -1.719 -1.921 -1.719 -3.281 c 0 -1.255 0.58 -2.376 1.484 -3.109 l -1.406 -1.406 z m 7.891 5.02 c -0.247 1.972 -1.93 3.5 -3.969 3.5 -0.473 0 -0.923 -0.099 -1.344 -0.25 l -1.516 1.516 c 0.851 0.465 1.821 0.734 2.859 0.734 0.756 0 1.474 -0.135 2.141 -0.391 c -0.085 -0.188 -0.141 -0.39 -0.141 -0.609 c 0 -0.828 0.672 -1.5 1.5 -1.5 0.402 0 0.762 0.164 1.031 0.422 0.81 -0.935 1.33 -2.116 1.438 -3.422 l -2 0 z" style="fill:#1c2023;opacity:1;fill-opacity:1;stroke:none"/>
  <path d="m 17 38 a 3 3 0 1 1 -6 0 3 3 0 1 1 6 0 z" transform="matrix(0.5,0,0,0.5,14.5,1014.3622)" style="fill:#1c2023;opacity:1;fill-opacity:1;stroke:none"/>
  <path d="m 17 38 a 3 3 0 1 1 -6 0 3 3 0 1 1 6 0 z" transform="matrix(0.5,0,0,0.5,13.5,1025.8622)" style="fill:#1c2023;opacity:1;fill-opacity:1;stroke:none"/>
 </g>
</svg>
