<svg xmlns="http://www.w3.org/2000/svg" viewBox="0 0 32 32">
 <defs>
  <radialGradient id="radialGradient3031" gradientUnits="userSpaceOnUse" gradientTransform="matrix(1,0,0,0.10447761,0,50.597015)" cx="32.5" cy="56.5" r="33.5">
   <stop style="stop-color:#000;stop-opacity:1"/>
   <stop offset="1" style="stop-color:#000;stop-opacity:0"/>
  </radialGradient>
 </defs>
 <g transform="translate(0,-1020.3622)">
  <path d="m 66 56.5 a 33.5 3.5 0 1 1 -67 0 33.5 3.5 0 1 1 67 0 z" transform="matrix(0.71641791,0,0,0.85714286,-7.2835821,999.9336)" style="fill:url(#radialGradient3031);opacity:0.3;fill-opacity:1;stroke:none"/>
  <g transform="matrix(0.5,0,0,0.5,23.373266,519.7541)">
   <path d="m -46.747 1010.27 0 42.824 64 0 0 -21.412 -3.048 -18.353 -23.952 -0.118 -3 -6 -30.952 0 c -1.524 0 -3.048 1.529 -3.048 3.059 z" style="fill:#95c7ae;fill-opacity:1;stroke:none"/>
   <rect y="1015.22" x="-41.747" height="11.882" width="31.571" style="fill:#fffdf0;fill-opacity:1;stroke:none"/>
   <path d="m -43.684 1007.22 c -1.524 0 -3.063 1.533 -3.063 3.063 l 0 2 c 0 -1.529 1.539 -3.063 3.063 -3.063 l 29.938 0 3 6 24.938 0.125 3.063 18.344 0 -2 -3.063 -18.344 -23.938 -0.125 -3 -6 z" style="fill:#000;opacity:0.03;fill-opacity:1;stroke:none"/>
   <path d="m 17.253 1016.39 0 42.824 -64 0 0 -40 30 0 3 -6 27.952 0.118 c 1.524 0 3.048 1.529 3.048 3.059 z" style="fill:#ae95c7;fill-opacity:1;stroke:none"/>
   <path d="m -46.747 1057.22 0 2 64 0 0 -2 z" style="fill:#000;opacity:0.15;fill-opacity:1;stroke:none"/>
   <path d="m -13.747 1013.22 -3 6 -30 0 0 2 31 0 3 -6 26.938 0.125 c 1.524 0 3.063 1.533 3.063 3.063 l 0 -2 c 0 -1.529 -1.539 -3.063 -3.063 -3.063 z" style="fill:#000;opacity:0.03;fill-opacity:1;stroke:none"/>
   <g transform="translate(-46.746531,12.853961)" style="opacity:1">
    <rect width="28" height="4" x="18" y="1035.36" rx="2" ry="1.905" style="fill:#1c2023;fill-opacity:1;stroke:none"/>
    <rect ry="1.929" rx="2" y="-22" x="1027.36" height="4" width="12" transform="matrix(0,1,-1,0,0,0)" style="fill:#1c2023;fill-opacity:1;stroke:none"/>
    <rect transform="matrix(0,1,-1,0,0,0)" width="12" height="4" x="1027.36" y="-46" rx="2" ry="1.929" style="fill:#1c2023;fill-opacity:1;stroke:none"/>
    <path d="m 34 1031.36 c -2 2 -2 2 -4 0 l -4 -4 c -2 -2 -2 -2 0 -2 l 12 0 c 2 0 2 0 0 2 z" style="fill:#1c2023;fill-opacity:1;stroke:none"/>
    <rect width="4" height="16" x="30" y="1013.36" rx="2" style="fill:#1c2023;fill-opacity:1;stroke:none"/>
   </g>
  </g>
 </g>
</svg>
