<svg xmlns="http://www.w3.org/2000/svg" viewBox="0 0 32 32">
 <defs>
  <radialGradient id="radialGradient3031" gradientUnits="userSpaceOnUse" gradientTransform="matrix(1,0,0,0.10447761,0,50.597015)" cx="32.5" cy="56.5" r="33.5">
   <stop style="stop-color:#000;stop-opacity:1"/>
   <stop offset="1" style="stop-color:#000;stop-opacity:0"/>
  </radialGradient>
 </defs>
 <g transform="translate(0,-1020.3622)">
  <path d="m 66 56.5 a 33.5 3.5 0 1 1 -67 0 33.5 3.5 0 1 1 67 0 z" transform="matrix(0.71641791,0,0,0.85714286,-7.2835821,999.9336)" style="fill:url(#radialGradient3031);opacity:0.3;fill-opacity:1;stroke:none"/>
  <path d="m 0 1024.89 0 21.412 32 0 0 -10.706 -1.524 -9.177 -11.976 -0.059 -1.5 -3 -15.476 0 c -0.762 0 -1.524 0.765 -1.524 1.529 z" style="fill:#95c7ae;fill-opacity:1;stroke:none"/>
  <rect width="15.786" height="5.941" x="2.5" y="1027.36" style="fill:#fffdf0;fill-opacity:1;stroke:none"/>
  <path d="m 1.531 1023.36 c -0.762 0 -1.531 0.767 -1.531 1.531 l 0 1 c 0 -0.765 0.769 -1.531 1.531 -1.531 l 14.969 0 1.5 3 12.469 0.062 1.531 9.172 0 -1 -1.531 -9.172 -11.969 -0.062 -1.5 -3 z" style="fill:#000;opacity:0.03;fill-opacity:1;stroke:none"/>
  <path d="m 32 1027.95 0 21.412 -32 0 0 -20 15 0 1.5 -3 13.976 0.059 c 0.762 0 1.524 0.765 1.524 1.529 z" style="fill:#ae95c7;fill-opacity:1;stroke:none"/>
  <path d="m 0 1048.36 0 1 32 0 0 -1 z" style="fill:#000;opacity:0.15;fill-opacity:1;stroke:none"/>
  <path d="m 16.5 1026.36 -1.5 3 -15 0 0 1 15.5 0 1.5 -3 13.469 0.062 c 0.762 0 1.531 0.767 1.531 1.531 l 0 -1 c 0 -0.765 -0.769 -1.531 -1.531 -1.531 z" style="fill:#000;opacity:0.03;fill-opacity:1;stroke:none"/>
  <path d="m 20.52 1033.36 c -0.518 0.01 -1.028 0.327 -1.11 0.921 -0.131 0.95 0.848 0.594 1.632 0.594 0.783 0 1.044 1.544 0.848 2.376 -0.196 0.832 -2.278 2.796 -6.984 0.832 -3.875 -1.617 -5.809 0.536 -5.907 0.579 0.367 3.213 3.356 6.697 6.984 6.697 3.875 0 7.02 -3.839 7.02 -7.366 0 -0.405 -0.051 -0.804 -0.131 -1.188 -0.072 -0.194 -0.143 -0.388 -0.196 -0.564 -0.095 -0.316 -0.202 -0.583 -0.294 -0.832 -0.004 -0.01 0.004 -0.022 0 -0.03 -0.371 -0.75 -0.891 -1.428 -1.534 -1.99 -0.003 -0.01 -0.013 0.01 -0.016 0 -0.1 -0.024 -0.206 -0.031 -0.31 -0.03 z" style="fill:#1c2023;opacity:1;fill-opacity:1;color:#000"/>
  <path d="m 19 1036.36 c 0 0.552 -0.448 1 -1 1 -0.552 0 -1 -0.448 -1 -1 0 -0.552 0.448 -1 1 -1 0.552 0 1 0.448 1 1 z" style="fill:#1c2023;opacity:1;fill-opacity:1;color:#000"/>
  <path d="m 16 1034.86 c 0 0.276 -0.224 0.5 -0.5 0.5 -0.276 0 -0.5 -0.224 -0.5 -0.5 0 -0.276 0.224 -0.5 0.5 -0.5 0.276 0 0.5 0.224 0.5 0.5 z" style="fill:#1c2023;opacity:1;fill-opacity:1;color:#000"/>
 </g>
</svg>
