<svg xmlns="http://www.w3.org/2000/svg" width="16" height="16" x="0" y="0" version="1.1" xml:space="preserve">
 <defs>
  <style id="current-color-scheme" type="text/css">
   .ColorScheme-Text { color:#dfe2e5; } .ColorScheme-Highlight { color:#4285f4; }
  </style>
 </defs>
 <path style="fill:currentColor" class="ColorScheme-Text" d="M 3.3691,3 0,6.0038 3.5,5.4999 5,13.5 8,12 16,14 13.475,7.6874 11.789,6.5097 7.3672,9.9999 4.6309,3.4785 Z M 12.594,3.1152 10.963,5.0292 12.631,6.0038 13.719,3.873 A 2.5,2.5 0 0 1 12.594,3.1152 Z M 9.2637,5 6.5371,6.0038 7.5781,8.5292 10.947,6.0038 Z"/>
 <circle style="fill:currentColor" class="ColorScheme-Highlight" cx="14.5" cy="1.5" r="1.5"/>
</svg>
