<svg xmlns="http://www.w3.org/2000/svg" width="16" height="16" version="1.1">
 <defs>
  <style id="current-color-scheme" type="text/css">
   .ColorScheme-Text { color:#dfe2e5; } .ColorScheme-Highlight { color:#4285f4; }
  </style>
 </defs>
 <path style="fill:currentColor" class="ColorScheme-Text" d="M 8,2 C 6.34,2 5,3.34 5,5 5,6.24 5.74,7.3 6.82,7.76 L 5,14 H 11 L 9.18,7.76 C 10.26,7.3 11,6.24 11,5 11,3.34 9.66,2 8,2 Z"/>
</svg>
