<svg xmlns="http://www.w3.org/2000/svg" width="16" height="16" version="1.1">
 <defs>
  <style id="current-color-scheme" type="text/css">
   .ColorScheme-Text { color:#dfe2e5; } .ColorScheme-Highlight { color:#4285f4; }
  </style>
 </defs>
 <path style="fill:currentColor" class="ColorScheme-Text" d="M 2 2 C 1.446 2 1 2.446 1 3 L 1 12 C 1 12.554 1.446 13 2 13 L 0 13 L 0 14 C 0 14.554 0.892 15 2 15 L 14 15 C 15.108 15 16 14.554 16 14 L 16 13 L 14 13 C 14.554 13 15 12.554 15 12 L 15 3 C 15 2.446 14.554 2 14 2 L 2 2 z M 3 4 L 13 4 L 13 12 L 3 12 L 3 4 z M 6 13 L 10 13 L 10 14 L 6 14 L 6 13 z"/>
</svg>
