<svg xmlns="http://www.w3.org/2000/svg" width="16" height="16" version="1.1">
 <defs>
  <style id="current-color-scheme" type="text/css">
   .ColorScheme-Text { color:#dfe2e5; } .ColorScheme-Highlight { color:#4285f4; }
  </style>
 </defs>
 <path style="opacity:0.3;fill:currentColor" class="ColorScheme-Text" d="M 7.9999999,1.0000017 C 11.865993,1.0000017 15,4.1340086 15,8.0000018 c 0,3.8659932 -3.134007,7.0000002 -7.0000001,7.0000002 -0.296373,0 -0.5863599,-0.0248 -0.8730469,-0.06055 -0.04526,-0.0058 -0.089656,-0.01286 -0.1347656,-0.01953 C 6.7299574,14.881982 6.47268,14.827882 6.220703,14.761719 6.195653,14.755119 6.171464,14.751059 6.146484,14.744139 5.554959,14.581744 4.99636,14.343681 4.478516,14.041014 2.92499,13.133016 1.754098,11.647408 1.261719,9.8749978 1.256619,9.8568678 1.253019,9.8384888 1.248049,9.8203108 1.178529,9.5619558 1.123763,9.2985542 1.083986,9.0292952 1.076486,8.9796352 1.066996,8.9306982 1.060546,8.8808577 1.024224,8.5919282 1,8.2987863 1,7.9999983 1,4.1340051 4.134007,0.99999824 7.9999996,0.99999824 Z m 1.5996095,3.0000001 c -0.482077,0 -1.010414,0.05122 -1.462891,0.1992188 C 7.5466392,4.32631 7.6260448,4.6059499 7.3906249,5.0000018 H 6.798828 c -0.2209038,2.23e-5 -0.4003687,0.177534 -0.4003906,0.3984375 v 0.6015625 c -0.161599,0.00272 -0.2537409,0.00824 -0.9609374,0 -0.205677,-0.00241 -0.60938,-8.29e-4 -0.962891,0 a 1.25,1.25 0 0 0 -1.224609,-1 1.25,1.25 0 0 0 -1.25,1.25 1.25,1.25 0 0 0 1.25,1.25 1.25,1.25 0 0 0 0.255859,-0.027344 C 4.187775,8.017322 5.166341,8.5585204 5.603516,8.974611 l -0.0039,0.2167968 c -0.0055,0.2265403 0.177708,0.4109652 0.4042971,0.4082032 0.3575981,-0.00402 0.4003188,0.075134 0.3867188,0.052734 -0.0128,-0.021595 0.013504,0.070236 -0.0625,0.2734374 -0.076004,0.2039986 -0.2189293,0.4701896 -0.3613279,0.7421876 -0.142399,0.271999 -0.288622,0.544199 -0.357422,0.841797 -0.05808,0.250414 0.133566,0.489654 0.390625,0.490234 h 2.3984274 c 0.001,3e-6 0.0029,3e-6 0.0039,0 1.06055,-0.0064 3.1953126,0 3.1953126,0 0.332744,0.0015 0.521285,-0.380822 0.318359,-0.644531 C 11.694888,11.067473 11.4891,10.522722 11.343741,9.9531262 11.239258,9.5443277 11.164866,9.1467555 11.103506,8.7851574 c 0.05592,-0.010404 0.113622,-0.027752 0.175781,-0.060547 0.13008,-0.067995 0.270599,-0.2724199 0.261719,-0.4492188 -0.0058,-0.1183993 -0.0192,-0.1137063 -0.02344,-0.1289062 -0.0042,-0.016 -0.0049,-0.022897 -0.0059,-0.029297 v -0.00195 c 0.335172,-0.468859 0.488282,-1.0895079 0.488282,-1.640625 0,-0.7019954 -0.333239,-1.3182621 -0.785157,-1.7558594 -0.451837,-0.4375173 -1.027718,-0.71875 -1.6152336,-0.71875 z m 0,0.8007812 c 0.313438,0 0.7357156,0.1795494 1.0585936,0.4921876 0.322878,0.3126381 0.541015,0.7347637 0.541015,1.1816406 0,0.400718 -0.179815,0.9987295 -0.371093,1.2363281 -0.02616,0.03178 -0.0472,0.067261 -0.0625,0.1054687 -0.02136,0.055204 -0.0072,0.093332 -0.01563,0.1445313 -0.10928,-0.015195 -0.214834,-0.024059 -0.445313,-0.097656 C 10.031324,7.755284 9.7885734,7.6345669 9.5624954,7.5097677 c 0,0 -1.227108,-0.7289004 -1.5937505,-1.265625 -0.062784,-0.1479411 -0.2084284,-0.244329 -0.3691406,-0.2441406 0.2209038,-2.2e-5 0.4003677,-0.579878 0.4003906,-0.8007812 0,-0.02176 -0.00693,-0.021513 0.048828,-0.070313 0.055765,-0.048879 0.1748235,-0.115329 0.3359425,-0.1679686 0.322318,-0.1054394 0.795966,-0.1601563 1.214844,-0.1601563 z m -2.8671876,2 c 0.023241,0.00411 0.046707,0.00586 0.070312,0.00586 l 0.4082031,-0.00391 c 0.06912,0.041444 0.1562188,0.1138077 0.2675781,0.2480468 0.7523209,0.6473501 1.4485609,1.0242612 2.3574219,1.4726563 0.064,0.028004 0.115481,0.063449 0.1816411,0.089844 0.0077,0.00265 0.01555,0.00571 0.02344,0.00781 0.0532,0.0176 0.08963,0.022709 0.138672,0.037109 0.02312,0.00795 0.08688,0.035419 0.103516,0.041016 0.06632,0.4087973 0.146837,0.9115278 0.285156,1.4531259 0.09752,0.382398 0.283727,0.702078 0.441406,1.046875 -0.552797,-0.0016 -1.7399271,-0.0056 -2.6132811,0 H 6.603518 c 0.0304,-0.0616 0.035919,-0.09536 0.070312,-0.160157 C 6.8114299,10.775864 6.9701276,10.494673 7.0781269,10.205075 7.1861263,9.9154764 7.2777644,9.5718755 7.0761769,9.2382775 6.9505777,9.0310789 6.6558544,9.0256395 6.406255,8.9648401 l 0.00195,-0.15625 C 6.410765,8.6990006 6.36868,8.5949389 6.2910175,8.5175744 c 0,0 -1.3636335,-0.8884217 -2.0585935,-1.4960937 A 1.25,1.25 0 0 0 4.371096,6.8007775 c 0.241911,-0.0012 0.785672,-0.00316 1.058594,0 0.9431922,0.011035 1.261934,0.0011 1.3027338,0 z"/>
 <path style="fill:currentColor" class="ColorScheme-Text" d="M 8,1 V 4.25 C 7.5849951,4.3918215 7.6018039,4.6465234 7.390625,5 H 6.7988281 C 6.5779243,5.0000223 6.3984594,5.177534 6.3984375,5.3984375 V 6 C 6.2368385,6.00272 6.1446966,6.00824 5.4375,6 5.231823,5.99759 4.82812,5.999171 4.474609,6 A 1.25,1.25 0 0 0 3.25,5 1.25,1.25 0 0 0 2,6.25 1.25,1.25 0 0 0 3.25,7.5 1.25,1.25 0 0 0 3.505859,7.4726562 c 0.681916,0.5446642 1.660482,1.0858626 2.097657,1.5019532 l -0.0039,0.2167968 c -0.0055,0.2265403 0.177708,0.4109652 0.4042972,0.4082032 0.3575982,-0.00402 0.4003188,0.075134 0.3867188,0.052734 -0.0128,-0.021595 0.013504,0.070236 -0.0625,0.2734374 C 6.252128,10.12978 6.1092026,10.395971 5.966804,10.667969 5.824405,10.939968 5.678182,11.212168 5.609382,11.509766 5.551298,11.76018 5.742941,11.99942 6,12 h 2.3984375 c 0.00104,3e-6 0.00286,3e-6 0.00391,0 1.0605461,-0.0064 3.1953085,0 3.1953085,0 0.332745,0.0015 0.521285,-0.380822 0.31836,-0.644531 C 11.694897,11.067472 11.489109,10.522721 11.34375,9.953125 11.239268,9.5443265 11.164875,9.1467543 11.103516,8.7851562 c 0.05592,-0.010404 0.113621,-0.027752 0.175781,-0.060547 0.130079,-0.067995 0.270599,-0.2724199 0.261719,-0.4492188 -0.0058,-0.1183993 -0.0192,-0.1137063 -0.02344,-0.1289062 -0.0042,-0.016 -0.0049,-0.022897 -0.0059,-0.029297 v -0.00195 C 11.84689,7.6463754 12,7.0257265 12,6.4746094 12,5.7899466 11.68101,5.1892488 11.246094,4.7539062 l 1.703125,-1.703125 C 14.21597,4.3175321 15,6.0670034 15,8 c 0,3.865993 -3.134007,7 -7,7 -0.296373,0 -0.5863599,-0.0248 -0.8730469,-0.06055 -0.04526,-0.0058 -0.089656,-0.01286 -0.1347656,-0.01953 -0.26223,-0.03794 -0.5195074,-0.09204 -0.7714844,-0.158203 -0.02505,-0.0066 -0.049239,-0.01066 -0.074219,-0.01758 C 5.554959,14.581742 4.99636,14.343679 4.478516,14.041012 2.92499,13.133014 1.754098,11.647406 1.261719,9.874996 1.256619,9.856866 1.253019,9.838487 1.248049,9.820309 1.178529,9.561954 1.123763,9.2985524 1.083986,9.0292934 1.076486,8.9796334 1.066996,8.9306964 1.060546,8.8808559 1.024224,8.5919299 1,8.298788 1,8 1,4.1340068 4.134007,1 8,1 Z m 0,4.1992188 v 1.078125 C 7.9922285,6.26676 7.9758851,6.2545856 7.96875,6.2441406 7.9059655,6.0961995 7.7603216,5.9998116 7.5996094,6 7.8205132,5.999978 7.9999771,5.420122 8,5.1992188 Z m 2.681641,0.1191406 c 0.309279,0.3100354 0.517578,0.7208429 0.517578,1.15625 0,0.400718 -0.179815,0.9987295 -0.371094,1.2363281 -0.02616,0.03178 -0.0472,0.067261 -0.0625,0.1054687 -0.02136,0.055204 -0.0072,0.093332 -0.01563,0.1445313 C 10.64072,7.9457422 10.535166,7.9368781 10.304688,7.8632812 10.031329,7.7552819 9.7885786,7.6345648 9.5625,7.5097656 c 0,0 -0.3038155,-0.1813533 -0.6484375,-0.4238281 z M 6.7324219,6.8007812 c 0.023241,0.00411 0.046706,0.00586 0.070312,0.00586 l 0.4082036,-0.00391 C 7.280057,6.8441787 7.3671563,6.9165422 7.4785156,7.0507812 7.6540843,7.2018529 7.8271247,7.334977 8,7.4609375 V 8 L 8.3222656,7.6777344 c 0.4662037,0.3065953 0.9473743,0.5663149 1.5136719,0.8457031 0.064,0.028004 0.115481,0.063449 0.1816405,0.089844 0.0077,0.00265 0.01555,0.00571 0.02344,0.00781 0.0532,0.0176 0.08963,0.022709 0.138672,0.037109 0.02312,0.00795 0.08688,0.035419 0.103516,0.041016 0.06632,0.4087972 0.146837,0.9115276 0.285156,1.4531255 0.09752,0.382398 0.283727,0.702078 0.441406,1.046875 -0.552797,-0.0016 -1.7399266,-0.0056 -2.6132811,0 H 6.6035151 c 0.0304,-0.0616 0.035919,-0.09536 0.070312,-0.160157 C 6.811428,10.775868 6.9701257,10.494676 7.078125,10.205078 7.1861244,9.9154802 7.2777625,9.5718792 7.0761719,9.2382812 6.9505727,9.0310827 6.6558494,9.0256431 6.40625,8.9648438 L 6.4082,8.8085938 C 6.41076,8.6990042 6.368675,8.5949426 6.2910125,8.5175781 c 0,0 -1.3636335,-0.8884217 -2.0585935,-1.4960937 A 1.25,1.25 0 0 0 4.371094,6.8007812 c 0.241911,-0.0012 0.785671,-0.00316 1.058594,0 0.9431918,0.011035 1.2619341,0.0011 1.3027339,0 z"/>
</svg>
