<svg xmlns="http://www.w3.org/2000/svg" width="16" height="16" version="1.1">
 <defs>
  <style id="current-color-scheme" type="text/css">
   .ColorScheme-Text { color:#dfe2e5; } .ColorScheme-Highlight { color:#4285f4; }
  </style>
 </defs>
 <rect style="opacity:0.3;fill:currentColor" class="ColorScheme-Text" width="14" height="2" x="2" y="13" rx="1" ry="1"/>
 <rect style="opacity:0.3;fill:currentColor" class="ColorScheme-Text" width="13" height="2" x="0" y="9" rx="1" ry="1"/>
 <rect style="opacity:0.3;fill:currentColor" class="ColorScheme-Text" width="12" height="2" x="4" y="5" rx="1" ry="1"/>
 <rect style="opacity:0.3;fill:currentColor" class="ColorScheme-Text" width="8" height="2" x="1" y="1" rx="1" ry="1"/>
</svg>
