<svg xmlns="http://www.w3.org/2000/svg" width="16" height="16" version="1.1">
 <defs>
  <style id="current-color-scheme" type="text/css">
   .ColorScheme-Text { color:#dfe2e5; } .ColorScheme-Highlight { color:#4285f4; }
  </style>
 </defs>
 <path style="fill:currentColor" class="ColorScheme-Text" d="M 8.642,1 C 5.919,1.1 3.41,2.81 2.421,5.57 1.118,9.21 2.937,13.26 6.517,14.58 9.235,15.58 12.173,14.72 14,12.67 12.692,13.1 11.235,13.12 9.843,12.61 6.519,11.38 4.814,7.63 6.024,4.25 6.531,2.84 7.477,1.74 8.642,1 Z"/>
</svg>
