<svg xmlns="http://www.w3.org/2000/svg" width="16" height="16" version="1.1">
 <path style="fill:#d6dade;opacity:0.3" d="M 8,1 C 5.784,1 4,2.784 4,5 V 8 H 5 V 5 C 5,3.338 6.338,2 8,2 9.662,2 11,3.338 11,5 H 12 C 12,2.784 10.216,1 8,1 Z M 3,8 V 14 H 11 V 8 Z"/>
 <path style="fill:#4285f4" class="warning" d="M 12,6 V 10 L 12.25,12 H 13.75 L 14,10 V 6 Z M 12,13 V 15 H 14 V 13 Z"/>
</svg>
