<svg xmlns="http://www.w3.org/2000/svg" width="16" height="16" version="1.1">
 <path style="fill:#d6dade" d="M 8 1 C 4.9494 1 2.0806 2.0732 0 4 L 8 15 L 16 4 C 13.919 2.0731 11.051 1 8 1 z M 8 3 C 9.9284169 3 11.635471 3.64124 13.130859 4.546875 L 8 11.601562 L 2.8691406 4.546875 C 4.3645301 3.641319 6.0719604 3 8 3 z"/>
</svg>
