<svg xmlns="http://www.w3.org/2000/svg" width="16" height="16" version="1.1">
 <path style="fill:#d6dade" d="M 5.81,3 H 3 V 5.81 L 0.72,8 3,10.22 V 13 H 5.81 L 8,15.28 10.22,13 H 13 V 10.22 L 15.28,8 13,5.81 V 3 H 10.22 L 8,0.72 M 8,4.15 10.5,8 H 9 V 12 H 7 V 8 H 5.5 Z"/>
</svg>
