<svg xmlns="http://www.w3.org/2000/svg" width="64" height="64" version="1.1">
 <rect style="opacity:0.2" width="50" height="32" x="7" y="24" rx="2.5" ry="2.5"/>
 <path style="fill:#95c7ae" d="M 7,44.5 C 7,45.885 8.115,47 9.5,47 H 54.5 C 55.885,47 57,45.885 57,44.5 V 17.5 C 57,16.115 55.885,15 54.5,15 H 29 V 12.5 C 29,11.115 27.885,10 26.5,10 H 9.5 C 8.115,10 7,11.115 7,12.5"/>
 <rect style="opacity:0.2" width="50" height="32" x="7" y="22" rx="2.5" ry="2.5"/>
 <rect style="fill:#e4e4e4" width="44" height="20" x="10" y="18" rx="2.5" ry="2.5"/>
 <rect style="fill:#95aec7" width="50" height="32" x="7" y="23" rx="2.5" ry="2.5"/>
 <path style="opacity:0.1;fill:#ffffff" d="M 9.5,10 C 8.115,10 7,11.115 7,12.5 V 13.5 C 7,12.115 8.115,11 9.5,11 H 26.5 C 27.885,11 29,12.115 29,13.5 V 12.5 C 29,11.115 27.885,10 26.5,10 Z M 29,15 V 16 H 54.5 C 55.89,16 57,17.115 57,18.5 V 17.5 C 57,16.115 55.89,15 54.5,15 Z"/>
 <path style="fill:#1c2023" d="M 32,29 C 26.477,29 22,33.477 22,39 22,44.523 26.477,49 32,49 37.523,49 42,44.523 42,39 42,33.477 37.523,29 32,29 Z M 31.286,31.768 C 31.381,31.758 31.502,31.774 31.598,31.768 31.61,31.814 31.529,31.976 31.42,32.214 30.726,33.731 30.686,35.506 31.33,36.455 31.447,36.627 31.554,36.791 31.554,36.812 31.554,36.834 31.428,36.857 31.286,36.857 30.952,36.857 30.636,36.654 29.991,36.143 29.705,35.916 29.332,35.725 29.188,35.696 28.961,35.651 28.9,35.671 28.607,35.964 28.334,36.237 28.25,36.384 28.25,36.634 28.25,37.581 29.374,38.334 31.464,38.777 34.302,39.378 35.002,39.918 35.08,41.411 35.179,43.282 34.182,44.693 32,45.786 31.74,45.916 31.574,45.967 31.464,46.009 31.416,46.005 31.379,46.013 31.33,46.009 31.312,45.951 31.286,45.817 31.286,45.563 31.286,44.569 30.894,43.545 30.304,42.973 30.145,42.82 29.702,42.494 29.322,42.259 28.942,42.024 28.559,41.751 28.473,41.634 28.332,41.44 28.32,41.322 28.429,40.964 28.627,40.312 28.863,39.948 29.322,39.536 29.562,39.32 29.804,39.138 29.857,39.134 29.911,39.13 29.55,39.021 29.009,38.911 28.468,38.8 27.677,38.568 27.268,38.42 26.52,38.149 25.51,37.581 25.125,37.17 25.109,37.152 25.095,37.14 25.081,37.125 25.632,34.928 27.18,33.127 29.232,32.259 29.662,32.077 30.104,31.953 30.572,31.857 30.804,31.81 31.046,31.792 31.286,31.768 Z M 37.982,35.116 C 38.15,35.22 38.783,36.59 38.964,37.259 39.198,38.122 39.181,39.616 38.964,40.473 38.882,40.8 38.776,41.105 38.741,41.143 38.706,41.181 38.578,40.962 38.429,40.697 38.279,40.431 37.8,39.866 37.402,39.447 36.253,38.234 36.072,37.601 36.554,36.634 36.796,36.146 37.852,35.036 37.982,35.116 Z"/>
</svg>
