<svg xmlns="http://www.w3.org/2000/svg" width="64" height="64" version="1.1">
 <rect style="opacity:0.2" width="50" height="32" x="7" y="24" rx="2.5" ry="2.5"/>
 <path style="fill:#95c7ae" d="M 7,44.5 C 7,45.885 8.115,47 9.5,47 H 54.5 C 55.885,47 57,45.885 57,44.5 V 17.5 C 57,16.115 55.885,15 54.5,15 H 29 V 12.5 C 29,11.115 27.885,10 26.5,10 H 9.5 C 8.115,10 7,11.115 7,12.5"/>
 <rect style="opacity:0.2" width="50" height="32" x="7" y="22" rx="2.5" ry="2.5"/>
 <rect style="fill:#e4e4e4" width="44" height="20" x="10" y="18" rx="2.5" ry="2.5"/>
 <rect style="fill:#95aec7" width="50" height="32" x="7" y="23" rx="2.5" ry="2.5"/>
 <path style="opacity:0.1;fill:#ffffff" d="M 9.5,10 C 8.115,10 7,11.115 7,12.5 V 13.5 C 7,12.115 8.115,11 9.5,11 H 26.5 C 27.885,11 29,12.115 29,13.5 V 12.5 C 29,11.115 27.885,10 26.5,10 Z M 29,15 V 16 H 54.5 C 55.89,16 57,17.115 57,18.5 V 17.5 C 57,16.115 55.89,15 54.5,15 Z"/>
 <path style="fill:#1c2023" d="M 31.333,31 C 28.476,31.003 25.939,32.99 25.024,35.942 23.177,36.91 22.002,38.947 22,41.182 22,44.395 24.388,47 27.333,47 28.641,46.997 29.902,46.471 30.877,45.52 31.029,45.534 31.181,45.543 31.333,45.546 32.307,45.542 33.269,45.306 34.15,44.853 34.924,45.306 35.788,45.544 36.666,45.546 39.612,45.546 42.001,42.94 42,39.726 42,36.513 39.612,33.908 36.667,33.908 36.663,33.908 36.66,33.908 36.656,33.908 35.399,32.08 33.428,31.004 31.333,31 Z"/>
</svg>
