<svg xmlns="http://www.w3.org/2000/svg" viewBox="0 0 22 22">
 <defs>
  <radialGradient r="11" cy="19" cx="11" gradientTransform="matrix(1,0,0,0.09090909,0,17.272727)" gradientUnits="userSpaceOnUse" id="radialGradient3783">
   <stop style="stop-color:#000;stop-opacity:1"/>
   <stop offset="1" style="stop-color:#000;stop-opacity:0"/>
  </radialGradient>
 </defs>
 <g transform="translate(0,-1030.3622)">
  <path d="M 22 19 A 11 1 0 1 1 0 19 11 1 0 1 1 22 19 z" transform="matrix(1.1818182,0,0,1,-2,1031.3622)" style="fill:url(#radialGradient3783);opacity:0.25;fill-opacity:1;stroke:none"/>
  <path d="m 0 1033.36 0 14 22 0 0 -7 -1 -6 -8 0 -1 -2 -11 0 c -0.5 0 -1 0.5 -1 1 z" style="fill:#95c7ae;fill-opacity:1;stroke:none"/>
  <path d="m 1 1032.36 c -0.5 0 -1 0.5 -1 1 l 0 1 c 0 -0.5 0.5 -1 1 -1 l 10 0 1 2 9 0 0 6 0 -1 0 -6 -8 0 -1 -2 z" style="fill:#000;opacity:0.03;fill-opacity:1;stroke:none"/>
  <rect width="10" height="4" x="2" y="1035.36" style="fill:#fffdf0;fill-opacity:1;stroke:none"/>
  <path d="m 22 1035.43 0 14.933 -22 0 0 -14 11 0 1 -2 9 0 c 0.5 0 1 0.533 1 1.067 z" style="fill:#ae95c7;fill-opacity:1;stroke:none"/>
  <path d="m 0 1049.36 0 1 22 0 0 -1 z" style="fill:#000;opacity:0.15;fill-opacity:1;stroke:none"/>
  <path d="m 12 1034.36 -1 2 -11 0 0 1 12 0 1 -2 8 0 c 0.5 0 1 0.5 1 1 l 0 -1 c 0 -0.5 -0.5 -1 -1 -1 z" style="fill:#000;opacity:0.03;fill-opacity:1;stroke:none"/>
  <g transform="translate(18.607183,12.874895)" style="opacity:1">
   <rect ry="0.486" rx="0.5" y="1034.49" x="-12.607" height="1" width="10" style="fill:#1c2023;fill-opacity:1;stroke:none"/>
   <rect transform="matrix(0,1,-1,0,0,0)" width="6" height="1" x="1029.49" y="11.607" rx="0.5" ry="0.378" style="fill:#1c2023;fill-opacity:1;stroke:none"/>
   <rect rx="0.5" y="2.607" x="1029.49" height="1" width="6" transform="matrix(0,1,-1,0,0,0)" style="fill:#1c2023;fill-opacity:1;stroke:none"/>
   <path d="m -6.976 1033.01 c -0.632 0.632 -0.632 0.632 -1.263 0 l -1.895 -1.895 c -0.632 -0.632 -0.632 -0.632 0 -0.632 l 5.05 0 c 0.632 0 0.632 0 0 0.632 z" style="fill:#1c2023;fill-opacity:1;stroke:none"/>
   <rect rx="1" y="1025.49" x="-8.607" height="7" width="2" style="fill:#1c2023;fill-opacity:1;stroke:none"/>
  </g>
 </g>
</svg>
