<svg xmlns="http://www.w3.org/2000/svg" viewBox="0 0 48 48">
 <defs>
  <radialGradient id="radialGradient3850" cx="24.08" cy="41.38" r="21.08" gradientTransform="matrix(1,0,0,0.11307633,0,36.703704)" gradientUnits="userSpaceOnUse">
   <stop style="stop-color:#000;stop-opacity:0.392"/>
   <stop offset="1" style="stop-color:#000;stop-opacity:0"/>
  </radialGradient>
 </defs>
 <g>
  <path d="m 45.15 41.38 a 21.08 2.383 0 1 1 -42.15 0 21.08 2.383 0 1 1 42.15 0 z" transform="matrix(1.1387537,0,0,1.0490275,-3.4162611,-1.9120725)" style="fill:url(#radialGradient3850);opacity:0.65;fill-opacity:1;stroke:none"/>
 </g>
 <g transform="translate(0,-1004.3622)">
  <path d="m 3 1014.36 0 28 42 0 0 -14 -2 -12 -16 0 -2 -4 -20 0 c -1 0 -2 1 -2 2 z" style="fill:#9ec49f;fill-opacity:1;stroke:none"/>
  <rect width="21" height="8" x="6" y="1017.36" style="fill:#fffdf0;fill-opacity:1;stroke:none"/>
  <path d="M 5,8 C 4,8 3,9 3,10 l 0,1 C 3,10 4,9 5,9 l 19,0 2,4 17,0 2,12 0,-1 -2,-12 -16,0 -2,-4 z" transform="translate(0,1004.3622)" style="fill:#000;opacity:0.03;fill-opacity:1;stroke:none"/>
  <path d="m 45 1018.36 0 28 -42 0 0 -26 20 0 2 -4 18 0 c 1 0 2 1 2 2 z" style="fill:#9ec3c4;fill-opacity:1;stroke:none"/>
  <path d="m 3 1045.36 0 1 42 0 0 -1 z" style="fill:#000;opacity:0.15;fill-opacity:1;stroke:none"/>
  <path d="m 25 12 -2 4 -20 0 0 1 21 0 2 -4 17 0 c 1 0 2 1 2 2 l 0 -1 c 0 -1 -1 -2 -2 -2 z" transform="translate(0,1004.3622)" style="fill:#000;opacity:0.03;fill-opacity:1;stroke:none"/>
  <path d="m 26.13 1026.02 c -1.592 0 -2.906 1.208 -2.906 2.719 0.012 0.518 0.041 1.175 0.344 2.563 l 0.031 0 c 0.061 0.184 0.155 0.366 0.313 0.563 0.141 0.176 0.328 0.377 0.5 0.563 0.053 0.392 0.061 0.735 0 1.156 -0.473 0.359 -1.326 0.694 -2.094 1 -0.4 0.159 -0.77 0.307 -1.063 0.5 -0.279 0.184 -0.48 0.435 -0.5 0.75 -0.001 0.015 -0.031 0.016 -0.031 0.031 l -0.344 2.656 0 0.031 c 0 0.329 0.219 0.599 0.531 0.813 0.312 0.214 0.735 0.382 1.25 0.531 1.029 0.299 2.426 0.469 3.969 0.469 1.543 0 2.939 -0.17 3.969 -0.469 0.515 -0.149 0.938 -0.317 1.25 -0.531 0.312 -0.214 0.531 -0.483 0.531 -0.813 l 0 -0.031 -0.375 -2.656 c 0 -0.01 0.001 -0.021 0 -0.031 -0.009 -0.15 -0.064 -0.298 -0.156 -0.406 -0.099 -0.116 -0.23 -0.19 -0.375 -0.281 -0.291 -0.182 -0.662 -0.335 -1.063 -0.5 -0.778 -0.32 -1.629 -0.683 -2.094 -1.063 -0.035 -0.362 -0.037 -0.732 0 -1.094 0.168 -0.198 0.357 -0.403 0.5 -0.594 0.16 -0.212 0.281 -0.405 0.344 -0.594 0.342 -1.445 0.357 -2.034 0.375 -2.563 0 -1.511 -1.314 -2.719 -2.906 -2.719 z m -5.406 0.5 c -1.308 0 -2.375 1.01 -2.375 2.25 0.01 0.425 0.032 0.924 0.281 2.063 l 0 0.031 c 0.051 0.152 0.15 0.274 0.281 0.438 0.115 0.143 0.268 0.319 0.406 0.469 0.042 0.314 0.047 0.632 0 0.969 -0.386 0.296 -1.086 0.562 -1.719 0.813 -0.328 0.13 -0.604 0.249 -0.844 0.406 -0.226 0.149 -0.387 0.37 -0.406 0.625 -0.001 0.015 -0.031 0.016 -0.031 0.031 l -0.313 2.156 0 0.031 c 0 0.203 0.097 0.378 0.25 0.531 0.153 0.153 0.365 0.293 0.625 0.406 0.512 0.223 1.242 0.378 2.125 0.469 l 0.031 0 c 0.048 0 0.096 -0.013 0.125 -0.031 0.036 -0.023 0.078 -0.041 0.094 -0.062 0.031 -0.043 0.049 -0.086 0.063 -0.125 0.023 -0.068 0.028 -0.149 0.031 -0.219 0 -0.01 0 -0.021 0 -0.031 l 0.344 -2.656 c 0 -0.109 0.075 -0.239 0.25 -0.375 0.175 -0.136 0.44 -0.272 0.75 -0.406 0.619 -0.268 1.404 -0.517 2.031 -0.844 l 0.344 -0.188 -0.344 -0.156 c -0.248 -0.12 -0.438 -0.253 -0.594 -0.375 -0.03 -0.309 -0.032 -0.63 0 -0.938 0.001 -0.01 -0.001 -0.021 0 -0.031 0.238 -0.321 0.42 -0.654 0.5 -0.844 l 0.031 -0.062 -0.031 -0.062 c -0.027 -0.155 -0.018 -0.273 -0.063 -0.406 -0.3 -1.371 -0.332 -1.936 -0.344 -2.438 0 -0.211 0.049 -0.456 0.125 -0.688 l 0.063 -0.125 -0.125 -0.062 c -0.417 -0.333 -0.97 -0.563 -1.563 -0.563 z" style="fill:#191919;opacity:1;fill-opacity:1;color:#000"/>
 </g>
</svg>
