<svg xmlns="http://www.w3.org/2000/svg" viewBox="0 0 48 48">
 <defs>
  <radialGradient gradientUnits="userSpaceOnUse" gradientTransform="matrix(1 0 0 0.11308 0 36.704)" id="radialGradient3850" r="21.08" cy="41.38" cx="24.08">
   <stop style="stop-color:#000;stop-opacity:0.392"/>
   <stop style="stop-color:#000;stop-opacity:0" offset="1"/>
  </radialGradient>
 </defs>
 <g>
  <path transform="matrix(1.13875 0 0 1.04903 -3.416 -1.912)" d="m 45.15 41.38 a 21.08 2.383 0 1 1 -42.15 0 21.08 2.383 0 1 1 42.15 0 z" style="fill:url(#radialGradient3850);opacity:0.65;fill-opacity:1;stroke:none"/>
 </g>
 <rect y="1.998" width="34" x="7" height="23" style="fill:#9ec49f;fill-opacity:1;stroke:none" rx="2"/>
 <path d="m 24 4.998 l -8 8 l 4 0 l 0 18 l 8 0 l 0 -18 l 4 0 l -8 -8 z" style="fill:#fff1ed;opacity:0.6;fill-opacity:1;stroke:none"/>
 <path d="m 45 17.998 0 24 -42 0 0 -22 20 0 2 -4 18 0 c 1 0 2 1 2 2 z" style="fill:#9ec3c4;fill-opacity:1;stroke:none"/>
 <path d="m 3 40.998 0 1 42 0 0 -1 z" style="fill:#000;opacity:0.15;fill-opacity:1;stroke:none"/>
 <path d="m 25 15.998 -2 4 -20 0 0 1 21 0 2 -4 17 0 c 1 0 2 1 2 2 l 0 -1 c 0 -1 -1.01 -2.11 -2 -2 z" style="fill:#000;opacity:0.03;fill-opacity:1;stroke:none"/>
 <path d="M 9,2 C 7.892,2 7,2.892 7,4 L 7,5 C 7,3.892 7.892,3 9,3 l 30,0 c 1.108,0 2,0.892 2,2 L 41,4 C 41,2.892 40.108,2 39,2 L 9,2 Z" style="fill:#000;opacity:0.03;fill-opacity:1;stroke:none"/>
</svg>
