<svg xmlns="http://www.w3.org/2000/svg" width="24" height="24" version="1.1">
 <defs>
  <style id="current-color-scheme" type="text/css">
   .ColorScheme-Text { color:#dfe2e5; } .ColorScheme-Highlight { color:#4285f4; }
  </style>
 </defs>
 <g transform="matrix(1,0,0,1,1,1)">
  <path style="opacity:0.35;fill:currentColor" class="ColorScheme-Highlight" d="M 9,4 V 5 H 6 V 17 C 6,17.554 6.446,18 7,18 H 15 C 15.554,18 16,17.554 16,17 V 5 H 13 V 4 Z"/>
  <path style="fill:currentColor" class="ColorScheme-Highlight" d="M 6 15 L 6 17 C 6 17.554 6.446 18 7 18 L 15 18 C 15.554 18 16 17.554 16 17 L 16 15 L 6 15 z"/>
 </g>
</svg>
