<svg xmlns="http://www.w3.org/2000/svg" width="24" height="24" version="1.1">
 <defs>
  <style id="current-color-scheme" type="text/css">
   .ColorScheme-Text { color:#dfe2e5; } .ColorScheme-Highlight { color:#4285f4; }
  </style>
 </defs>
 <g transform="translate(0 -1028.4)">
  <path style="fill:currentColor" class="ColorScheme-Text" d="m10 1033.4v1h-3v13h10v-13h-3v-1h-4zm-2 8h8v2h-8v-2zm0 3h8v2h-8v-2z"/>
 </g>
</svg>
