<svg xmlns="http://www.w3.org/2000/svg" width="24" height="24" version="1.1">
 <defs>
  <style id="current-color-scheme" type="text/css">
   .ColorScheme-Text { color:#dfe2e5; } .ColorScheme-Highlight { color:#4285f4; }
  </style>
 </defs>
 <path style="fill:currentColor" class="ColorScheme-Text" d="m15 16v0.798828l1.802734 1.201172-1.802734 1.201172v0.798828h3v-4z"/>
 <circle style="fill:currentColor" class="ColorScheme-Text" cx="16.5" cy="13.5" r="1.5"/>
 <path style="stroke:currentColor;stroke-width:2;fill:none" class="ColorScheme-Text" d="m8 15a10 10 0 0 1 10 -10"/>
 <path style="stroke:currentColor;stroke-width:2;fill:none" class="ColorScheme-Text" d="m12 15a6 6 0 0 1 6 -6"/>
 <path style="fill:currentColor" class="ColorScheme-Text" d="m10 16-3 2 3 2"/>
 <path style="opacity:.3;fill:currentColor" class="ColorScheme-Text" d="m12 20 3-2-3-2"/>
</svg>
