<svg xmlns="http://www.w3.org/2000/svg" width="24" height="24" version="1.1">
 <defs>
  <style id="current-color-scheme" type="text/css">
   .ColorScheme-Text { color:#dfe2e5; } .ColorScheme-Highlight { color:#4285f4; }
  </style>
 </defs>
 <path style="fill:currentColor" class="ColorScheme-Text" d="M 9.6659888,4 C 7.080655,4 4.9999729,6.1018375 4.9999729,8.7128906 v 2.5742184 c 0,0.0034 0.002,0.0064 0.002,0.0098 0.0024,1.722632 0.163625,5.562883 1.521485,7.109375 C 7.747042,19.799811 10.599144,20 11.751976,20 c 2.04875,0 3.248047,-0.802734 3.248047,-0.802734 V 17.5 c 0,0 -1.521099,0.525921 -2.980469,0.5 C 10.969683,17.97132 9.324905,17.55981 9.099633,16.400391 9.069663,16.256512 9.056603,16.091447 9.035183,15.935547 9.243756,15.964112 9.44947,16 9.6660428,16 h 4.6679682 c 2.585334,0 4.666016,-2.101838 4.666016,-4.712891 V 8.7128906 C 19.000027,6.1018375 16.919345,4 14.334011,4 Z M 8.999973,8 a 1,1 0 0 1 1.0000002,1 1,1 0 0 1 -1.0000002,1 1,1 0 0 1 -1,-1 1,1 0 0 1 1,-1 z"/>
</svg>
