<svg xmlns="http://www.w3.org/2000/svg" width="24" height="24" version="1.1">
 <defs>
  <style id="current-color-scheme" type="text/css">
   .ColorScheme-Text { color:#dfe2e5; } .ColorScheme-Highlight { color:#4285f4; }
  </style>
 </defs>
 <g transform="translate(-128 -596.36)">
  <path opacity=".35" style="fill:currentColor" class="ColorScheme-Text" d="m133 615.37 14-14v14z"/>
 </g>
</svg>
