<svg xmlns="http://www.w3.org/2000/svg" width="24" height="24" version="1.1">
 <defs>
  <style id="current-color-scheme" type="text/css">
   .ColorScheme-Text { color:#dfe2e5; } .ColorScheme-Highlight { color:#4285f4; }
  </style>
 </defs>
 <path style="fill:currentColor" class="ColorScheme-Text" d="M 12,3.9999999 A 8,8 0 0 0 3.9999999,12 8,8 0 0 0 12,20 8,8 0 0 0 20,12 8,8 0 0 0 12,3.9999999 Z m -2.5,4 h 5 c 0.831,0 1.5,0.669 1.5,1.5000002 V 14.5 c 0,0.831 -0.669,1.5 -1.5,1.5 h -5 C 8.669,16 7.9999999,15.331 7.9999999,14.5 V 9.5000001 C 7.9999999,8.6689999 8.669,7.9999999 9.5,7.9999999 Z M 10.59961,10 C 10.26721,10 10,10.267209 10,10.599609 V 13.40039 C 10,13.73279 10.26721,14 10.59961,14 h 2.800781 C 13.732791,14 14,13.73279 14,13.40039 V 10.599609 C 14,10.267209 13.732791,10 13.400391,10 Z"/>
</svg>
