<svg xmlns="http://www.w3.org/2000/svg" width="24" height="24" version="1.1">
 <defs>
  <style id="current-color-scheme" type="text/css">
   .ColorScheme-Text { color:#dfe2e5; } .ColorScheme-Highlight { color:#4285f4; }
  </style>
 </defs>
 <path style="fill:currentColor" class="ColorScheme-Text" d="m 7.0249898,4.0000744 v 0.00195 c -2.4887083,0 -4.3597989,2.0010688 -4.4906099,4.4804688 L 2.0362913,17.943434 c -0.3150264,1.85 1.482765,3.017141 2.9943906,0.994141 0.9425788,-1.279 2.9689984,-3.9375 2.9689984,-3.9375 l 8.0006697,0.04102 2.988531,4.021484 c 1.499025,2.012 3.186861,0.357874 2.996345,-1.003906 L 21.48909,8.5840588 c 7.84e-4,-0.034624 0.0098,-0.066745 0.0098,-0.1015625 -3e-5,-2.4824 -2.002332,-4.4824219 -4.490641,-4.4824219 z m -1.0254769,2 h 2.0001674 v 2 H 9.9998477 V 10.000075 H 7.9996803 v 2 H 5.9995129 v -2 H 3.9993455 V 8.0000744 h 2.0001674 z m 11.0009211,0 a 1.0000837,1 0 0 1 1.000083,1 1.0000837,1 0 0 1 -1.000083,1 1.0000837,1 0 0 1 -1.000084,-1 1.0000837,1 0 0 1 1.000084,-1 z m -2.000168,2 A 1.0000837,1 0 0 1 16.00035,9.0000749 1.0000837,1 0 0 1 15.000266,10.000075 1.0000837,1 0 0 1 14.000183,9.0000749 1.0000837,1 0 0 1 15.000266,8.0000744 Z m 4.000335,0 a 1.0000837,1 0 0 1 1.000084,1.0000005 1.0000837,1 0 0 1 -1.000084,1.0000001 1.0000837,1 0 0 1 -1.000084,-1.0000001 1.0000837,1 0 0 1 1.000084,-1.0000005 z m -2.000167,2.0000006 a 1.0000837,1 0 0 1 1.000083,1 1.0000837,1 0 0 1 -1.000083,1 1.0000837,1 0 0 1 -1.000084,-1 1.0000837,1 0 0 1 1.000084,-1 z"/>
</svg>
