<svg xmlns="http://www.w3.org/2000/svg" width="24" height="24" version="1.1">
 <defs>
  <style id="current-color-scheme" type="text/css">
   .ColorScheme-Text { color:#dfe2e5; } .ColorScheme-Highlight { color:#4285f4; }
  </style>
 </defs>
 <g transform="translate(-497 -1003.4)">
  <path style="fill:currentColor" class="ColorScheme-Text" d="m503 1007.4c-2 0-2 2-2 2v12c0 2 2 2 2 2h12s2 0 2-2v-12c0-2-2-2-2-2h-12zm0 1.9981h12v12h-12v-12zm1 3v8h10v-8h-10z"/>
 </g>
</svg>
