<svg xmlns="http://www.w3.org/2000/svg" width="24" height="24" version="1.1">
 <defs>
  <style id="current-color-scheme" type="text/css">
   .ColorScheme-Text { color:#dfe2e5; } .ColorScheme-Highlight { color:#4285f4; }
  </style>
 </defs>
 <g transform="translate(-176.00033,-680.28985)">
  <path style="fill:currentColor" class="ColorScheme-Text" d="m 10.751953,4.0371094 c -2.7627799,0.10144 -5.3086999,1.80458 -6.3124999,4.5625 -1.26383,3.4723396 0.36867,7.3245696 3.6875,8.8124996 -0.0932,-0.33746 -0.14688,-0.70692 -0.125,-1.0625 0.0277,-1.00125 0.58397,-1.88737 1.375,-2.46875 -1.56688,-1.73319 -2.13559,-4.2464596 -1.28125,-6.5937496 0.51416,-1.41265 1.47444,-2.50836 2.6562499,-3.25 z m 3.25,7.9687496 c -1.31168,0 -2.40482,0.85843 -2.8125,2.03125 -1.2308299,0.15597 -2.1874999,1.19557 -2.1874999,2.46875 0,1.38071 1.1192899,2.5 2.4999999,2.5 l 5.5,0 c 1.10457,0 2,-0.89543 2,-2 0,-1.10457 -0.89543,-2 -2,-2 0,-1.65685 -1.34315,-3 -3,-3 z" transform="translate(177,681.28999)"/>
 </g>
</svg>
