<svg xmlns="http://www.w3.org/2000/svg" viewBox="0 0 48 48">
 <defs>
  <radialGradient id="radialGradient3850" cx="24.08" cy="41.38" r="21.08" gradientTransform="matrix(1,0,0,0.11307633,0,36.703704)" gradientUnits="userSpaceOnUse">
   <stop style="stop-color:#000;stop-opacity:0.392"/>
   <stop offset="1" style="stop-color:#000;stop-opacity:0"/>
  </radialGradient>
 </defs>
 <g>
  <path d="m 45.15 41.38 a 21.08 2.383 0 1 1 -42.15 0 21.08 2.383 0 1 1 42.15 0 z" transform="matrix(1.1387537,0,0,1.0490275,-3.4162611,-1.9120725)" style="fill:url(#radialGradient3850);opacity:0.65;fill-opacity:1;stroke:none"/>
 </g>
 <g transform="translate(0,-1004.3622)">
  <path d="m 3 1014.36 0 28 42 0 0 -14 -2 -12 -16 0 -2 -4 -20 0 c -1 0 -2 1 -2 2 z" style="fill:#d3869b;fill-opacity:1;stroke:none"/>
  <rect width="21" height="8" x="6" y="1017.36" style="fill:#fffdf0;fill-opacity:1;stroke:none"/>
  <path d="M 5,8 C 4,8 3,9 3,10 l 0,1 C 3,10 4,9 5,9 l 19,0 2,4 17,0 2,12 0,-1 -2,-12 -16,0 -2,-4 z" transform="translate(0,1004.3622)" style="fill:#000;opacity:0.03;fill-opacity:1;stroke:none"/>
  <path d="m 45 1018.36 0 28 -42 0 0 -26 20 0 2 -4 18 0 c 1 0 2 1 2 2 z" style="fill:#83a598;fill-opacity:1;stroke:none"/>
  <path d="m 3 1045.36 0 1 42 0 0 -1 z" style="fill:#000;opacity:0.15;fill-opacity:1;stroke:none"/>
  <path d="m 25 12 -2 4 -20 0 0 1 21 0 2 -4 17 0 c 1 0 2 1 2 2 l 0 -1 c 0 -1 -1 -2 -2 -2 z" transform="translate(0,1004.3622)" style="fill:#000;opacity:0.03;fill-opacity:1;stroke:none"/>
  <path d="m 17 1025.36 0 5 5 0 -1.719 -1.719 c 1.023 -0.803 2.318 -1.281 3.719 -1.281 3.314 0 6 2.686 6 6 0 3.314 -2.686 6 -6 6 -3.314 0 -6 -2.686 -6 -6 0 -0.701 0.123 -1.375 0.344 -2 l -2.094 0 c -0.164 0.638 -0.25 1.311 -0.25 2 0 4.418 3.582 8 8 8 4.418 0 8 -3.582 8 -8 0 -4.418 -3.582 -8 -8 -8 -1.957 0 -3.766 0.677 -5.156 1.844 l -1.844 -1.844 z m 6.906 2.969 a 1 1 0 0 0 -0.125 0.031 1 1 0 0 0 -0.781 1 l 0 3.688 a 1 1 0 0 0 0 0.094 1 1 0 0 0 0.125 0.75 1 1 0 0 0 0.031 0.031 1 1 0 0 0 0.031 0.062 1 1 0 0 0 0.031 0.031 1 1 0 0 0 0.031 0.031 1 1 0 0 0 0.031 0.031 1 1 0 0 0 0.031 0.031 1 1 0 0 0 0.063 0.031 1 1 0 0 0 0.031 0.031 1 1 0 0 0 0.031 0.031 1 1 0 0 0 0.063 0.031 1 1 0 0 0 0.125 0.062 l 2.469 1.438 a 1.01 1.01 0 1 0 1 -1.75 l -2.094 -1.219 0 -3.406 a 1 1 0 0 0 -1.094 -1.031 z" style="fill:#282828;opacity:1;fill-opacity:1;color:#000"/>
 </g>
</svg>
