<svg xmlns="http://www.w3.org/2000/svg" viewBox="0 0 16 16">
 <g transform="translate(0,-1036.3622)">
  <g transform="translate(0,1036.3622)" style="fill:#83a598;fill-opacity:1">
   <g transform="translate(0,-1036.3622)" style="fill:#83a598;fill-rule:evenodd">
    <path d="m 0.045 1046.8 c 0.229 -0.168 0.76 -0.668 1.63 -1.533 0.867 -0.87 2.027 -2.06 3.529 -3.624 0.983 1.398 1.706 2.406 2.241 3.069 0.522 0.655 0.812 0.942 0.882 0.862 0.555 -0.497 1.023 -0.92 1.426 -1.29 0.397 -0.37 0.705 -0.674 0.949 -0.922 1.221 1.536 2.235 2.801 3.123 3.87 0.873 1.061 1.566 1.864 2.103 2.455 l -3.324 -2.762 c -0.275 0.707 -0.723 1.072 -1.358 1.105 -0.653 0.019 -1.645 -0.773 -2.445 -0.92 -0.8 -0.146 -1.597 0.304 -2.308 0.061 -0.727 -0.257 -1.288 -1.273 -1.969 -1.536 -0.684 -0.26 -1.377 -0.26 -2.103 0 -0.791 0.387 -1.581 0.776 -2.375 1.166 z" style="fill:#83a598"/>
    <path d="m 0 1046.36 5 -5 3.282 3.678 2.218 -2.178 5.5 6.5 -3 2 -11 0 z" style="fill:#83a598"/>
   </g>
  </g>
  <path d="m 2 1036.36 c -1.108 0 -2 0.892 -2 2 l 0 12 c 0 1.108 0.892 2 2 2 l 12 0 c 1.108 0 2 -0.892 2 -2 l 0 -12 c 0 -1.108 -0.892 -2 -2 -2 l -12 0 z m 0 2 12 0 0 12 -12 0 0 -12 z" style="fill:#83a598;fill-opacity:1"/>
 </g>
</svg>
