<svg xmlns="http://www.w3.org/2000/svg" width="16" height="16" version="1.1">
 <defs>
  <style id="current-color-scheme" type="text/css">
   .ColorScheme-Text { color:#d6dade; } .ColorScheme-Highlight { color:#4285f4; }
  </style>
 </defs>
 <path style="fill:currentColor" class="ColorScheme-Text" d="M 0,10.057 3.0078,11.793 C 3.0028,11.862 3.0002,11.931 3,12 3,13.657 4.3432,15 6,15 7.6569,15 9,13.657 9,12 8.9993,11.905 8.9941,11.811 8.9844,11.717 L 13.361,8.8867 C 14.911,8.4932 15.997,7.0991 16,5.5 16,3.567 14.433,2 12.5,2 10.783,2.001 9.3208,3.2468 9.0469,4.9414 L 6.5684,9.0566 C 6.3811,9.0197 6.1908,9.0008 6,9 5.5472,9.001 5.1005,9.1045 4.6934,9.3027 L 0,6.5928 M 12.5,3 C 13.881,3 15,4.1193 15,5.5 15,6.8807 13.881,8 12.5,8 11.119,8 10,6.8807 10,5.5 10,4.1193 11.119,3 12.5,3 Z M 12.5,4 C 11.672,4 11,4.6716 11,5.5 11,6.3284 11.672,7 12.5,7 13.328,7 14,6.3284 14,5.5 14,4.6716 13.328,4 12.5,4 Z M 6,10 C 7.1046,10 8,10.895 8,12 8,13.105 7.1046,14 6,14 5.0464,13.999 4.2263,13.324 4.041,12.389 L 4.7461,12.797 C 5.4658,13.212 6.3794,12.968 6.7949,12.248 7.2104,11.528 6.9658,10.615 6.2461,10.199 L 5.9082,10.004 C 5.9388,10.002 5.9694,10.001 6,10 Z"/>
</svg>
