<svg xmlns="http://www.w3.org/2000/svg" width="16" height="16" version="1.1">
 <defs>
  <style id="current-color-scheme" type="text/css">
   .ColorScheme-Text { color:#d6dade; } .ColorScheme-Highlight { color:#4285f4; }
  </style>
 </defs>
 <path style="fill:currentColor" class="ColorScheme-Text" d="M 1,2 V 13 C 1,13 1,14 2,14 H 14 C 14,14 15,14 15,13 V 4 C 15,3 14,3 14,3 H 9 L 7,1 H 2 C 2,1 1,1 1,2 Z"/>
 <path style="opacity:0.2" d="M 2 1 C 2 1 1.9084 1.0089 1.7891 1.0332 L 15 8.6602 L 15 6.6602 L 5.1953 1 L 2 1 z M 1 2.5781 L 1 4.5781 L 15 12.66 L 15 10.66 L 1 2.5781 z M 12.125 3 L 15 4.6602 L 15 4 C 15 3 14 3 14 3 L 12.125 3 z M 1 6.5781 L 1 8.5781 L 10.393 14 L 13.855 14 L 1 6.5781 z M 1 10.578 L 1 12.578 L 3.4648 14 L 6.9277 14 L 1 10.578 z"/>
</svg>
