<svg xmlns="http://www.w3.org/2000/svg" width="16" height="16" version="1.1">
 <defs>
  <style id="current-color-scheme" type="text/css">
   .ColorScheme-Text { color:#d6dade; } .ColorScheme-Highlight { color:#4285f4; }
  </style>
 </defs>
 <path style="fill:none;stroke:currentColor;stroke-width:2;stroke-linejoin:round" class="ColorScheme-Text" d="M 0,6.0001 H 3 L 5,14 7,2.0001 9.5,9.0001 11,4.0001 13,10 H 16"/>
</svg>
