<svg xmlns="http://www.w3.org/2000/svg" width="16" height="16" version="1.1">
 <path style="fill:#d6dade" d="M 2,3 H 11 C 12,3 12,4 12,4 V 12 C 12,13 11,13 11,13 H 2 C 2,13 1,13 1,12 V 4 C 1,4 1,3 2,3 Z M 16,4.5 V 12 L 12,8 Z"/>
</svg>
